<?xml version="1.0" encoding="UTF-8"?>
<!DOCTYPE svg PUBLIC "-//W3C//DTD SVG 1.1//EN" "http://www.w3.org/Graphics/SVG/1.1/DTD/svg11.dtd">
<!-- Creator: CorelDRAW Home & Student X8 -->
<svg xmlns="http://www.w3.org/2000/svg" xml:space="preserve" width="8.7in" height="8.5in" version="1.1" style="shape-rendering:geometricPrecision; text-rendering:geometricPrecision; image-rendering:optimizeQuality; fill-rule:evenodd; clip-rule:evenodd"
viewBox="0 0 8700 8500"
 xmlns:xlink="http://www.w3.org/1999/xlink">
 <defs>
  <font id="FontID1" horiz-adv-x="657" font-variant="normal" style="fill-rule:nonzero" font-style="normal" font-weight="700">
	<font-face 
		font-family="Corbel">
		<font-face-src>
			<font-face-name name="Corbel Bold"/>
		</font-face-src>
	</font-face>
   <missing-glyph><path d="M0 0z"/></missing-glyph>
   <glyph unicode="w" horiz-adv-x="749" d="M373.502 344.669c-9.00232,-47.1646 -19.8303,-93.0072 -32.1691,-137.175l-57.1616 -207.494 -113.832 0 -165.504 473.006 122.167 0 61.0017 -198.177c14.0008,-45.83 26.3271,-90.3253 37.1676,-133.335l1.82564 0c9.166,41.6751 20.0065,86.1704 32.8364,133.335l54.165 198.177 122.003 0 53.334 -198.177c11.3316,-41.9898 22.1595,-86.3341 32.6602,-133.335l2.00191 0c11.0042,44.0043 23.3305,88.336 37.0039,133.335l61.0017 198.177 122.167 0 -165.504 -473.006 -113.832 0 -57.1616 207.494c-13.0061,46.5099 -23.6704,92.1762 -32.1691,137.175l-2.00191 0z"/>
   <glyph unicode="A" horiz-adv-x="657" d="M452.672 165.995l-247.343 0 -63.331 -165.995 -127.493 0 259.33 653.002 109.337 0 259.33 -653.002 -126.498 0 -63.331 165.995zm-124.673 330.001c-23.3305,-68.0021 -44.0043,-125 -61.9964,-170.83l-22.1721 -59.1635 170.339 0 -22.1721 58.9998c-17.992,46.1699 -38.6659,103.168 -61.9964,170.994l-2.00191 0z"/>
   <glyph unicode="t" horiz-adv-x="379" d="M352.501 0.667305c-13.0061,-3.84015 -28.5052,-7.0004 -46.4973,-9.32967 -18.1683,-2.16559 -35.002,-3.33652 -50.6648,-3.33652 -39.6731,0 -72.1696,6.49678 -97.502,19.3267 -25.3324,12.8425 -43.1733,31.3381 -53.4977,55.3359 -7.50403,17.3373 -11.3442,40.6678 -11.3442,70.3314l0 245.002 -88.3234 0 0 95.0091 88.3234 0 0 132 116.01 0 0 -132 136.659 0 0 -95.0091 -136.659 0 0 -229.993c0,-18.1683 2.8329,-31.6655 8.32242,-40.5041 9.66962,-14.9955 29.1725,-22.4995 58.0051,-22.4995 13.4972,0 26.667,0.994662 39.8368,3.17284 13.1698,2.16559 25.6598,4.82222 37.3313,7.99506l0 -95.5001z"/>
   <glyph unicode="L" horiz-adv-x="537" d="M197.998 652.998l0 -553.004 305.662 0 0 -99.9944 -425.658 0 0 652.998 119.996 0z"/>
   <glyph unicode="n" horiz-adv-x="554" d="M169.672 407.333l1.98932 0c6.83672,9.8333 15.5117,19.3392 25.836,28.8326 10.5006,9.50594 22.3358,17.6647 35.6693,24.8288 13.3335,7.17667 28.1653,13.0061 44.168,17.3373 16.1664,4.50745 33.3275,6.67305 51.4958,6.67305 17.3373,0 34.0074,-2.00191 50.1738,-5.84206 15.9901,-3.99124 30.8345,-9.99698 44.168,-18.332 13.3335,-8.33501 25.1561,-18.9993 35.3294,-32.1691 10.3369,-13.3335 18.332,-28.9963 24.1615,-47.1646 3.33652,-10.1607 5.50212,-21.1649 6.67305,-33.0001 1.15834,-11.8352 1.66197,-25.6598 1.66197,-41.3351l0 -307.162 -115.998 0 0 289.333c0,12.6662 -0.503626,23.4942 -1.49829,32.6727 -1.00725,9.166 -2.66922,17.1611 -5.33844,23.9978 -5.82947,14.9955 -14.6681,25.6598 -26.4907,32.1691 -12.0115,6.49678 -26.3396,9.8333 -43.1733,9.8333 -22.4995,0 -44.0043,-5.33844 -64.6656,-16.0027 -20.6613,-10.5006 -38.8296,-25.9997 -54.8323,-46.1699l0 -325.834 -115.998 0 0 473.006 95.9911 0 10.6769 -65.6728z"/>
   <glyph unicode="k" horiz-adv-x="516" d="M68.0021 707.003l115.998 0 0 -425.841 2.50554 0 180.16 191.844 143.005 0 -207.507 -222.175 209.005 -250.831 -140.172 0 -184.994 220.173 -2.00191 0 0 -220.173 -115.998 0 0 707.003z"/>
   <glyph unicode="h" horiz-adv-x="559" d="M184 514.328c0,-24.4888 -0.327357,-44.4954 -1.17093,-60.3344 -0.830983,-15.8265 -2.16559,-29.9909 -4.16751,-42.6571l2.00191 0c6.83672,9.00232 15.1717,18.1683 25.005,27.3343 9.99698,8.98973 20.8375,16.9974 32.8364,23.6578 11.8226,6.67305 25.3324,12.1752 40.4915,16.3427 15.1717,4.16751 31.8418,6.3331 49.9975,6.3331 15.6754,0 30.8345,-1.49829 45.6789,-4.67113 14.8318,-2.99658 28.6563,-7.83139 41.4988,-14.3282 12.8299,-6.50937 24.5014,-15.0081 35.1657,-25.5087 10.5006,-10.3243 19.4903,-22.6632 26.667,-36.9913 6.15683,-12.5025 10.6643,-26.5033 13.6609,-42.0024 2.8329,-15.6754 4.33118,-34.6747 4.33118,-57.1742l0 -304.329 -115.998 0 0 288.83c0,14.6681 -0.667305,26.667 -2.00191,35.833 -1.33461,9.34226 -3.5002,17.3373 -6.82413,24.1741 -6.83672,14.3282 -16.5063,24.5014 -29.1725,30.3309 -12.6662,5.82947 -27.1706,8.83864 -43.5007,8.83864 -22.3358,-0.339948 -42.9971,-5.67838 -62.1601,-16.179 -19.0119,-10.3243 -36.3366,-25.6598 -52.3393,-45.83l0 -325.997 -115.998 0 0 707.003 115.998 0 0 -192.675z"/>
   <glyph unicode="e" horiz-adv-x="512" d="M307.499 80.9985c22.4996,0 46.0024,2.16881 70.3315,6.66873 24.5061,4.49992 49.1745,11.0064 74.1675,19.3275l0 -91.8279c-14.8276,-6.50644 -37.8288,-12.6735 -68.8266,-18.5013 -30.8355,-5.82776 -62.9989,-8.6605 -96.1655,-8.6605 -33.506,0 -65.3447,4.32287 -95.5016,12.9981 -30.0093,8.49821 -56.3449,22.4996 -79.0068,41.6648 -22.4996,19.1652 -40.337,44.1582 -53.6597,74.6691 -13.1752,30.6585 -19.8439,67.6611 -19.8439,111.332 0,42.9927 6.1671,80.4969 18.6784,112.837 12.3342,32.1634 28.9913,58.8235 49.8237,79.9953 20.8324,21.1717 44.6746,37.0026 71.6741,47.6696 26.8225,10.49 54.6629,15.8309 83.3296,15.8309 29.9945,0 57.6727,-4.49992 83.0051,-13.662 25.1553,-9.01459 47.168,-23.3406 65.4923,-42.8451 18.5013,-19.4898 32.842,-44.4976 43.0074,-75.156 10.3277,-30.8355 15.4915,-67.0119 15.4915,-109.001 -0.324584,-16.1702 -0.826215,-30.0093 -1.49014,-41.3402l-310.347 0c1.66718,-21.998 6.50644,-40.6616 14.6801,-56.3301 8.15887,-15.5063 18.6636,-28.1651 32.0011,-37.8288 13.1604,-9.67851 28.4897,-16.8341 45.9877,-21.1717 17.6751,-4.49992 36.678,-6.66873 57.1711,-6.66873zm-46.327 314.006c-14.6653,0 -27.6782,-2.67044 -39.1714,-8.01133 -11.3309,-5.48843 -21.1717,-12.6588 -29.5077,-21.998 -8.32116,-9.32442 -14.8276,-20.1685 -19.6669,-32.4879 -4.9868,-12.3342 -8.15887,-25.5094 -9.82605,-39.5108l186.002 0c0,14.0014 -1.82948,27.1766 -5.66547,39.5108 -3.6737,12.3194 -9.17688,23.1635 -16.5095,32.4879 -7.33265,9.33918 -16.4948,16.5095 -27.3241,21.998 -11.0064,5.34089 -23.6651,8.01133 -38.3305,8.01133z"/>
   <glyph unicode="T" horiz-adv-x="570" d="M346.004 0l-120.002 0 0 552.994 -211.007 0 0 100.008 541.499 0 0 -100.008 -210.491 0 0 -552.994z"/>
   <glyph unicode="s" horiz-adv-x="423" d="M273.005 137.329c0,10.1654 -2.83274,18.5013 -8.49821,25.0077 -5.68023,6.49169 -13.3375,11.8326 -22.8389,16.3325 -9.33918,4.33763 -20.1685,8.15887 -32.3404,11.4932 -12.3342,3.17207 -24.993,6.50644 -38.3305,9.67851 -16.9964,4.66221 -33.3289,9.82605 -48.8352,15.9932 -15.6686,6.00481 -29.4929,13.8391 -41.3255,23.6651 -11.8326,9.66376 -21.334,21.998 -28.3421,36.8403 -6.99332,14.8276 -10.49,32.8273 -10.49,54.3236 0,26.4979 4.66221,49.3368 14.1637,68.6643 9.50147,19.3423 22.3373,35.3354 38.3305,48.009 16.1702,12.8358 34.9961,22.1603 56.3301,28.3274 21.334,6.1671 43.8336,9.33918 67.6758,9.33918 28.9913,0 56.1678,-2.33111 81.5002,-7.00807 25.3323,-4.66221 48.3336,-10.8293 68.8266,-18.162l0 -93.8344c-10.667,3.49666 -21.998,6.66873 -33.9928,9.66376 -11.8326,3.00978 -23.8422,5.66547 -35.9994,7.83428 -12.3342,2.16881 -24.3438,3.99829 -36.501,5.34089 -12.0096,1.49014 -23.3406,2.16881 -34.1699,2.16881 -13.662,0 -25.17,-1.3426 -34.6715,-3.836 -9.32442,-2.67044 -16.9964,-6.1671 -22.8242,-10.5047 -6.00481,-4.33763 -10.1654,-9.33918 -12.8358,-15.0046 -2.50815,-5.66547 -3.836,-11.6555 -3.836,-17.8226 0,-10.667 2.83274,-19.5046 8.49821,-26.3356 5.66547,-6.83102 13.662,-12.3342 23.6651,-16.5095 10.0031,-4.32287 20.6701,-7.81953 31.6765,-10.49 10.9916,-2.83274 21.8209,-5.50318 32.1634,-8.17362 16.3325,-3.836 32.5027,-8.49821 48.8352,-14.1637 16.1554,-5.50318 30.8208,-13.1604 43.8336,-23.1635 12.9981,-9.84081 23.6651,-22.6619 31.824,-38.5075 8.33592,-15.8309 12.4965,-35.8223 12.4965,-60.3284 0,-26.6602 -4.9868,-50.0007 -15.1669,-69.8299 -9.98834,-19.8292 -23.9897,-36.3387 -41.9894,-49.4991 -18.1767,-13.1752 -39.6731,-23.0012 -65.0054,-29.3306 -25.17,-6.34415 -52.8335,-9.50147 -83.1674,-9.50147 -29.9945,0 -56.8318,2.33111 -80.8362,6.99332 -23.8274,4.83926 -43.6566,10.667 -59.3252,17.8374l0 93.1705c25.4946,-9.33918 48.8352,-15.6686 70.3315,-19.0029 21.4963,-3.33437 41.5025,-5.00155 60.1661,-5.00155 14.1637,0 27.6634,1.00326 39.9976,3.17207 12.3342,2.15406 23.0012,5.32613 32.0011,9.98834 8.83755,4.49992 16.0079,10.1654 21.1717,17.1735 5.16384,6.99332 7.83428,15.3292 7.83428,24.993z"/>
   <glyph unicode="b" horiz-adv-x="557" d="M518.005 244.838c0,-42.6697 -6.16942,-80.5046 -18.5083,-113.341 -12.3262,-32.8238 -28.6689,-59.8308 -48.6629,-80.9957 -19.994,-21.1649 -42.506,-36.8402 -67.4985,-47.1646 -25.005,-10.1732 -50.3374,-15.3354 -75.6698,-15.3354 -17.8284,0 -33.9948,2.16559 -48.3355,6.49678 -14.3282,4.33118 -26.8307,9.66962 -37.495,16.3301 -10.8406,6.50937 -19.8303,13.3335 -27.1706,20.5102 -7.32776,7.16408 -12.9936,13.4972 -17.3247,18.9993l-1.83824 0 -11.3316 -50.3374 -95.6638 0c0.654714,14.0008 1.32202,31.3381 1.82564,51.9994 0.503626,20.6613 0.667305,40.3279 0.667305,58.8361l0 596.167 115.998 0 0 -196.666c0,-14.0008 0,-26.8307 -0.163678,-38.8422 -0.163678,-11.8226 -0.503626,-20.9886 -0.830983,-27.498l0.994662 0c7.50403,5.17476 15.6754,10.1732 24.3377,15.1717 8.83864,4.83481 18.332,9.166 28.8326,13.1698 10.3369,3.82756 21.5048,7.0004 33.6674,9.32967 11.9989,2.16559 24.6651,3.33652 37.9986,3.33652 26.3396,0 51.8357,-4.83481 76.6645,-14.3408 25.005,-9.66962 47.0009,-24.3251 66.3401,-43.9917 19.3267,-19.6666 34.6621,-45.0116 46.1573,-75.6698 11.3442,-30.8345 17.01,-66.1639 17.01,-106.164zm-120.002 -5.84206c0,29.6762 -3.5002,55.1722 -10.6643,76.5008 -7.17667,21.3412 -16.5063,37.6712 -28.0016,48.8391 -11.5079,11.3316 -23.5067,18.8356 -36.0093,22.8269 -12.4899,3.84015 -24.8288,5.84206 -37.155,5.84206 -16.8337,0 -34.0074,-3.5002 -51.5084,-10.3369 -17.501,-6.83672 -33.3275,-15.839 -47.6682,-27.3343l0 -226.833c4.50745,-5.33844 10.1732,-10.828 16.8337,-16.5063 6.50937,-5.66579 14.0008,-10.828 22.3358,-15.6628 8.17133,-4.65854 17.1737,-8.66237 27.007,-11.6589 9.65703,-3.17284 19.994,-4.67113 30.9982,-4.67113 18.823,0 35.3294,3.82756 49.4939,11.4953 14.0008,7.66771 25.836,18.5083 35.3294,32.5091 9.66962,14.0008 16.8337,30.6582 21.6685,50.1612 4.83481,19.3392 7.34035,40.9952 7.34035,64.8293z"/>
   <glyph unicode="p" horiz-adv-x="549" d="M285.006 392.002c-20.1687,-0.334057 -39.3352,-5.33099 -57.6666,-14.8377 -18.1783,-9.49279 -34.3383,-22.4932 -48.3408,-38.6671l0 -210.832c4.82991,-5.66505 10.662,-11.1631 17.6633,-16.6611 6.83425,-5.66505 14.3366,-10.6759 22.8412,-15.3388 8.49062,-4.49585 17.8303,-8.33751 28.1582,-11.1631 10.1748,-3.00651 20.8368,-4.49585 31.9999,-4.49585 17.8442,0 33.8372,3.82774 47.8398,11.4971 14.0026,7.66939 25.6667,18.4984 34.9925,32.501 9.17265,13.9886 16.341,30.6637 21.1709,49.9972 4.82991,19.3336 7.33534,40.9916 7.33534,64.6679 0,25.3327 -2.50543,47.6588 -7.50237,66.8253 -5.16397,19.3336 -12.3323,35.1734 -21.491,48.0068 -9.33968,12.6663 -20.5028,22.1591 -33.5031,28.6593 -13.0004,6.50019 -27.504,9.84077 -43.497,9.84077zm15.3249 -404c-25.4997,0 -48.494,4.66288 -69.3308,13.8355 -20.6698,9.32576 -37.832,20.8229 -51.5005,34.4914l-2.00434 0c0.334057,-6.50019 0.668114,-15.6589 1.00217,-27.6571 0.334057,-11.8451 0.501086,-24.8316 0.501086,-38.8341l0 -196.843 -116.001 0 0 700.003 101.665 0 5.01086 -53.0037 1.8234 0c14.5036,19.0134 32.835,34.5053 55.3421,46.6706 22.4932,12.1652 48.661,18.3314 78.3225,18.3314 25.6667,0 50.9994,-4.82991 76.0119,-14.3227 24.9986,-9.67374 46.9907,-24.3444 66.3243,-44.1791 19.1665,-19.9878 34.5053,-45.0003 46.1695,-75.3299 11.4971,-30.1626 17.3292,-66.1572 17.3292,-107.831 0,-43.9981 -6.16614,-81.9971 -18.4984,-113.997 -12.4993,-31.9999 -28.8263,-58.5018 -48.995,-79.5056 -20.1687,-20.9899 -42.6758,-36.6628 -67.1733,-46.6566 -24.6646,-10.1748 -49.9972,-15.1718 -75.998,-15.1718z"/>
   <glyph unicode="K" horiz-adv-x="631" d="M78.1658 0l0 653.005 119.668 0 0 -297.172 1.82948 0 246.669 297.172 148.335 0 -272.341 -323.507 294.841 -329.497 -153.337 0 -264.167 294.841 -1.82948 0 0 -294.841 -119.668 0z"/>
   <glyph unicode="m" horiz-adv-x="851" d="M672.996 288.339c0,10.1607 -0.327357,19.4903 -0.994662,28.329 -0.667305,8.83864 -1.83824,16.4938 -3.33652,23.0031 -3.66388,14.3282 -10.6643,25.8234 -21.0012,34.6621 -10.5006,8.83864 -25.1687,13.3335 -43.9917,13.6734 -10.1732,0 -20.5102,-1.51088 -31.3381,-4.34378 -10.6643,-2.99658 -21.3286,-7.16408 -32.0054,-12.4899 -10.5006,-5.50212 -20.6613,-12.0115 -30.1672,-19.6666 -9.65703,-7.66771 -18.332,-16.1664 -26.1634,-25.6723l0 -325.834 -115.998 0 0 288.339c0,10.1607 -0.327357,19.4903 -0.994662,28.329 -0.667305,8.83864 -1.83824,16.4938 -3.33652,23.0031 -3.66388,14.3282 -10.5006,25.8234 -20.8375,34.6621 -10.1607,8.83864 -24.9924,13.3335 -44.168,13.6734 -10.1607,0 -20.4976,-1.51088 -31.3255,-4.34378 -10.6769,-2.99658 -21.3412,-7.16408 -32.0054,-12.4899 -10.5006,-5.50212 -20.6613,-12.0115 -30.1672,-19.6666 -9.66962,-7.66771 -18.332,-16.1664 -26.1634,-25.6723l0 -325.834 -115.998 0 0 473.006 95.9911 0 10.6769 -65.6728 1.98932 0c6.83672,9.8333 15.5117,19.3392 25.836,28.8326 10.5006,9.50594 22.3358,17.6647 35.5056,24.8288 13.1698,7.17667 27.6617,13.0061 43.5007,17.3373 15.8265,4.50745 32.4965,6.67305 50.1612,6.67305 31.1745,0 59.3397,-7.0004 84.3322,-20.8375 24.8414,-13.8371 43.8407,-35.3294 56.8342,-64.6656l2.00191 0c9.166,12.6662 19.3392,24.3377 30.4946,34.6621 11.3442,10.5006 23.8341,19.3392 37.5076,26.8307 13.6609,7.50403 28.329,13.3335 44.168,17.6773 15.8265,4.16751 32.6602,6.3331 50.6648,6.3331 33.8311,-0.339948 62.3363,-7.34035 85.1632,-21.1775 23.0031,-13.8245 40.6678,-32.8238 53.1703,-56.9979 3.16025,-6.15683 5.99315,-12.9936 8.17133,-20.1576 2.32927,-7.34035 4.15492,-15.6754 5.66579,-24.6777 1.49829,-9.166 2.49295,-19.3267 3.16025,-30.3309 0.667305,-11.1679 1.00725,-23.8341 1.00725,-38.1623l0 -293.501 -116.01 0 0 288.339z"/>
   <glyph unicode="H" horiz-adv-x="698" d="M197.998 383.999l302.002 0 0 268.999 119.996 0 0 -652.998 -119.996 0 0 284.004 -302.002 0 0 -284.004 -119.996 0 0 652.998 119.996 0 0 -268.999z"/>
   <glyph unicode="j" horiz-adv-x="262" d="M196.993 -61.8333c0,-44.3353 -6.99332,-78.5051 -20.9947,-102.495 -14.6653,-25.3323 -36.3387,-44.173 -64.666,-56.3449 -28.3274,-12.1572 -61.8333,-18.3243 -100.665,-18.3243 -17.1735,0 -32.8273,1.00326 -46.6664,2.99503 -13.8391,1.82948 -26.8372,4.66221 -39.3337,8.33592l0 94.8376c10.5047,-2.83274 22.1603,-5.50318 34.9961,-7.67199 12.8358,-2.33111 25.17,-3.49666 36.8403,-3.49666 15.6686,0 29.3306,1.82948 41.0009,5.32613 11.8326,3.6737 21.157,9.84081 28.3274,18.5013 5.50318,6.50644 9.50147,15.5063 11.8326,26.8372 2.16881,11.4932 3.33437,25.17 3.33437,41.0009l0 525.325 115.995 0 0 -534.826zm-118.99 768.837l121.999 0 0 -125.009 -121.999 0 0 125.009z"/>
   <glyph unicode="&amp;" horiz-adv-x="691" d="M619.498 349c-4.49486,-44.6716 -13.8371,-84.8358 -27.6617,-120.669 -13.8371,-35.833 -31.1745,-67.6622 -51.9994,-95.6638 16.6574,-16.9974 32.3328,-33.1638 47.0009,-48.4992 14.6681,-15.3354 27.6617,-28.9963 39.1569,-40.8315 11.6715,-11.9989 21.0012,-21.6685 28.3416,-29.3362 7.32776,-7.66771 11.8352,-12.3388 13.4972,-14.0008l-165.001 0c-5.50212,7.16408 -11.8352,14.6681 -18.6719,22.3358 -6.82413,7.66771 -15.8265,17.6647 -27.3217,30.1672 -31.5018,-21.8322 -65.5092,-37.9986 -101.506,-48.6755 -36.1729,-10.488 -72.8369,-15.8265 -110.005,-15.8265 -29.9909,0 -57.3252,4.16751 -82.1666,12.5025 -24.6651,8.33501 -45.83,19.994 -63.4947,35.1657 -17.501,15.1591 -31.1619,33.4911 -40.9952,55.1596 -9.8333,21.6685 -14.6681,45.6663 -14.6681,72.0059 0,22.4995 3.5002,42.8334 10.5006,60.838 7.0004,18.1557 16.3301,34.4984 27.989,49.1665 11.8352,14.6555 25.345,27.8253 40.5041,39.8242 15.3354,11.8352 31.3381,22.8394 48.0082,32.8364 -12.5025,12.1626 -24.0104,24.1615 -34.511,36.1604 -10.6643,12.1752 -19.8303,24.6777 -27.6617,37.6712 -7.66771,13.0061 -13.8371,26.8307 -18.1683,41.3351 -4.49486,14.5044 -6.66046,30.1672 -6.66046,47.0009 0,24.8288 4.33118,47.0009 13.1572,66.5038 8.83864,19.4903 21.5048,36.1604 38.1749,49.8338 16.6574,13.6609 36.8277,24.1615 60.8254,31.3255 24.0104,7.16408 51.0047,10.6643 81.3356,10.6643 30.3309,0 57.5015,-3.32393 81.663,-9.8333 24.0104,-6.49678 44.508,-16.1664 61.3417,-28.9963 16.8337,-12.8299 29.6636,-28.8326 38.8296,-47.8319 9.166,-19.163 13.6734,-41.1714 13.6734,-66.1639 0,-22.1721 -3.5002,-42.1661 -10.3369,-59.8308 -6.83672,-17.841 -16.0027,-33.8437 -27.8379,-48.1718 -11.6589,-14.3282 -25.1687,-27.3343 -40.4915,-39.1695 -15.3354,-11.6589 -31.3381,-22.6632 -47.8445,-33.1638 15.839,-16.3301 34.171,-35.002 54.6686,-56.1669 20.4976,-21.1649 42.1661,-43.5007 65.0055,-66.8312 10.6643,18.8356 19.6666,39.8368 26.667,63.0036 7.0004,22.9905 11.6589,48.4992 13.8245,76.1609l112.837 0zm-363.165 -266.003c22.3358,0 44.999,3.33652 67.4985,10.1732 22.6632,6.82413 44.3317,17.3247 64.8293,31.6655 -12.4899,12.6662 -24.9924,25.4961 -37.6586,38.5022 -12.6662,12.9936 -25.1687,25.8234 -37.6712,38.6659 -12.3262,12.6662 -24.3251,24.9924 -36.3366,36.8277 -11.8226,11.8352 -22.9905,23.1668 -33.3275,34.0074 -11.4953,-7.17667 -21.9959,-14.6681 -31.8292,-22.5121 -9.66962,-7.83139 -18.1683,-16.1664 -25.1687,-24.8288 -7.0004,-8.82605 -12.5025,-18.332 -16.5063,-28.329 -4.16751,-10.1732 -6.15683,-21.0012 -6.15683,-32.6727 0,-13.6609 2.49295,-25.4961 7.32776,-35.6693 4.83481,-9.99698 11.4953,-18.4957 19.8303,-25.3324 8.17133,-6.82413 18.0046,-11.9989 29.1725,-15.3228 11.3316,-3.5002 23.3305,-5.17476 35.9967,-5.17476zm-52.3393 426.999c0,-9.66962 1.51088,-18.8356 4.67113,-27.3343 2.99658,-8.33501 7.66771,-16.8337 13.6734,-24.9924 5.99315,-8.33501 13.1572,-16.67 21.8322,-25.1687 8.66237,-8.49869 18.332,-17.6647 28.9963,-27.8379 11.3316,7.16408 21.8322,14.5044 31.6655,22.0085 9.66962,7.49144 18.1683,15.3228 25.3324,23.8341 7.16408,8.49869 12.6662,17.4884 16.67,27.158 4.16751,9.50594 6.16942,19.8303 6.16942,30.8345 0,18.9993 -6.50937,34.0074 -19.5029,45.5026 -13.0061,11.3316 -31.3381,16.9974 -54.996,16.9974 -12.0115,0 -22.6758,-1.66197 -31.8418,-4.83481 -9.32967,-3.33652 -17.1611,-7.66771 -23.4942,-13.1698 -6.3331,-5.48952 -11.0042,-11.9989 -14.3408,-19.3267 -3.16025,-7.34035 -4.83481,-15.1717 -4.83481,-23.6704z"/>
   <glyph unicode="g" horiz-adv-x="549" d="M370.996 -11.9989c0,6.49678 0,14.5044 0.176269,24.1615 0.163678,9.66962 0.654714,17.6647 1.32202,24.1741l-0.994662 0c-7.16408,-5.84206 -15.3354,-11.6715 -24.6651,-17.3373 -9.32967,-5.66579 -19.5029,-10.828 -30.6708,-15.6628 -10.9916,-4.67113 -23.1668,-8.49869 -36.664,-11.1679 -13.3335,-2.8329 -26.9944,-4.16751 -40.9952,-4.16751 -25.1687,0 -49.6701,4.49486 -73.6679,13.4972 -23.8341,8.83864 -45.1753,23.0031 -63.6709,42.3298 -18.6719,19.5029 -33.6674,44.3443 -44.999,74.5115 -11.4953,30.3309 -17.1611,66.6549 -17.1611,109.325 0,42.6697 5.82947,80.001 17.3247,112.17 11.6715,31.9928 27.007,58.8361 46.1699,80.1647 19.3267,21.5048 41.3351,37.6712 66.3276,48.6629 25.005,10.8406 50.6774,16.3427 77.0044,16.3427 28.9963,0 54.8323,-6.16942 77.1681,-18.332 22.4995,-12.3388 40.9952,-27.8379 55.3359,-46.8372l2.00191 0 4.82222 53.1703 101.833 0 0 -481.668c0,-27.6743 -2.32927,-51.3321 -6.82413,-71.175 -4.67113,-19.8303 -11.3316,-37.495 -20.1702,-52.8304 -10.3369,-17.8284 -23.6704,-33.5037 -39.8368,-46.8372 -16.1664,-13.3335 -34.4984,-24.3251 -55.1596,-33.1638 -20.8375,-8.82605 -43.5007,-15.3354 -68.1658,-19.6666 -24.8414,-4.49486 -51.0047,-6.66046 -78.6664,-6.66046 -15.6754,0 -30.9982,0.491035 -45.8426,1.66197 -14.9955,1.17093 -29.16,2.8329 -42.3298,4.83481 -13.1698,2.16559 -25.1687,4.49486 -36.1604,7.32776 -10.8406,2.66922 -20.0065,5.50212 -27.5106,8.49869l0 93.6745c21.5048,-6.83672 44.0043,-11.9989 67.6748,-15.6628 23.4942,-3.5002 48.3355,-5.33844 74.3352,-5.33844 51.8231,0 91.8236,9.99698 120.165,30.0035 28.329,19.994 42.4935,50.1612 42.4935,90.829l0 11.1679zm-103.495 91.9999c11.6715,0 22.6632,1.49829 33.1638,4.33118 10.5006,2.99658 20.0065,6.67305 28.8326,11.3316 8.83864,4.50745 16.67,9.66962 23.6704,15.1717 7.0004,5.50212 12.9936,10.9916 17.8284,16.67l0 211.661c-12.3262,14.6681 -27.6617,26.8307 -45.83,36.664 -18.332,9.8333 -37.6712,14.8318 -58.1688,15.1717 -7.16408,0 -14.8318,-0.830983 -22.8269,-2.66922 -7.83139,-1.83824 -16.0027,-4.99849 -24.1741,-9.50594 -8.15874,-4.65854 -15.8265,-10.6643 -23.1668,-18.332 -7.32776,-7.66771 -13.6609,-17.3247 -19.3267,-29.16 -5.50212,-11.6715 -9.99698,-25.6723 -13.3335,-42.0024 -3.5002,-16.3301 -5.17476,-35.1657 -5.17476,-56.8342 0,-23.6704 2.34186,-44.999 6.83672,-63.6709 4.50745,-18.823 11.3316,-34.8257 20.4976,-47.9956 9.166,-13.1698 20.5102,-23.3305 34.0074,-30.3309 13.4972,-7.0004 29.16,-10.5006 47.1646,-10.5006z"/>
   <glyph unicode="d" horiz-adv-x="557" d="M267.497 80.0049c11.3386,0 22.1643,1.49832 32.5041,4.33298 10.1643,2.99664 19.8291,6.99216 28.9945,11.8246 9.1654,5.0079 17.1699,10.3398 24.1756,16.1711 6.99216,5.99328 12.9989,11.6626 17.8314,17.1699l0 224.667c-13.6739,11.1632 -29.008,20.3286 -45.8405,27.8336 -16.9945,7.32962 -35.0013,11.0012 -53.8315,11.0012 -12.0001,0 -24.6615,-2.5107 -37.8359,-7.34312 -13.1609,-4.83242 -25.161,-13.1609 -36.1621,-24.999 -10.8392,-11.6626 -20.0046,-27.9956 -27.3342,-48.8236 -7.32962,-20.8415 -11.0012,-47.5008 -11.0012,-79.6674 0,-47.6763 9.1654,-84.8373 27.6717,-111.51 18.3308,-26.8348 45.3275,-40.3331 80.8283,-40.6571zm-228.5 147.159c0,41.332 5.66932,78.3311 17.1699,110.673 11.3386,32.3286 26.9967,59.5008 46.6639,81.4897 19.6671,22.0023 42.3309,38.3354 67.6673,49.3366 25.4984,10.8392 51.8338,16.333 79.168,16.333 12.837,0 24.837,-1.16086 36.3376,-3.3341 11.3251,-2.33522 22.1643,-5.49384 32.1666,-9.32738 10.1643,-3.99552 19.4917,-8.3285 28.3331,-13.1744 8.82794,-4.9944 16.9945,-9.9888 24.4995,-15.1587l0.99888 0c-0.337459,6.49272 -0.674919,15.6581 -0.836899,27.4962 -0.16198,12.0001 -0.16198,24.837 -0.16198,38.8348l0 196.671 115.992 0 0 -566.338c0,-31.3297 0.337459,-58.1645 1.01238,-80.6663 0.66142,-22.3398 1.32284,-42.5064 1.99776,-60.0003l-104.842 0 -4.83242 50.4974 -1.99776 0c-6.83018,-8.16652 -14.9967,-16.1576 -24.6615,-24.0001 -9.66484,-7.66708 -20.1666,-14.4973 -31.8427,-20.1666 -11.5006,-5.66932 -24.3241,-10.1643 -38.1599,-13.4984 -13.8358,-3.17212 -28.8325,-4.83242 -45.1656,-4.83242 -25.8359,0 -50.4974,4.49496 -74.1736,13.6604 -23.5007,9.17889 -44.6661,23.1767 -63.4963,42.1689 -18.6683,19.1677 -33.6649,44.0047 -45.0036,74.835 -11.1632,30.6683 -16.8325,66.8304 -16.8325,108.5z"/>
   <glyph unicode=" " horiz-adv-x="205" d=""/>
   <glyph unicode="u" horiz-adv-x="544" d="M273.003 -11.9989c-47.5045,0 -87.0014,7.99506 -118.176,24.1615 -31.3255,16.1664 -54.996,37.8349 -70.8224,65.1692 -8.49869,14.6681 -14.8444,30.6708 -18.8356,48.3355 -4.16751,17.501 -6.16942,37.0039 -6.16942,58.4962l0 288.842 115.998 0 0 -276.34c0,-16.0027 1.17093,-29.6636 3.33652,-41.3351 2.32927,-11.4953 5.82947,-21.4922 10.3369,-30.0035 7.83139,-14.1645 18.823,-24.8288 33.1638,-31.8292 14.3282,-7.0004 31.3381,-10.5006 51.1684,-10.5006 20.8249,0 38.6659,3.84015 53.334,11.6715 14.8318,7.83139 25.9997,19.6666 33.4911,35.6693 7.50403,15.1591 11.1679,36.5003 11.1679,63.822l0 278.845 115.998 0 0 -288.842c0,-38.3259 -6.66046,-70.835 -19.994,-97.1621 -7.50403,-14.8318 -17.1611,-28.5052 -29.1725,-40.6678 -11.8226,-12.1626 -25.8234,-22.6632 -41.9898,-31.1619 -16.0027,-8.67496 -34.3347,-15.3354 -54.6686,-20.1702 -20.3339,-4.67113 -42.9971,-7.0004 -68.1658,-7.0004z"/>
   <glyph unicode="S" horiz-adv-x="577" d="M398.998 187.827c0,16.5063 -4.00383,30.0035 -12.1626,40.1768 -8.17133,10.3243 -19.163,18.6593 -33.1638,25.1687 -14.0008,6.66046 -29.6762,11.8226 -47.0009,15.9901 -17.3373,4.00383 -35.6693,8.00766 -54.6686,11.8352 -25.3324,5.66579 -49.6701,12.1626 -72.6732,19.8303 -22.9905,7.66771 -43.3244,18.332 -60.8254,31.8418 -17.501,13.4972 -31.5018,30.6582 -41.8387,51.4958 -10.5006,20.8375 -15.6628,46.8372 -15.6628,78.1628 0,34.4984 5.99315,64.5019 18.1683,90.1743 11.9989,25.4961 28.4926,46.661 49.1665,63.4947 20.8249,16.67 44.999,29.1725 73.0006,37.5076 27.8253,8.32242 59.1635,12.4899 94.0018,12.4899 34.8257,0 69.8278,-3.32393 104.993,-10.1607 35.1657,-6.83672 65.3329,-15.6628 90.829,-26.3396l0 -102.501c-33.8311,13.3335 -66.3276,23.0031 -97.4894,29.0089 -31.0108,5.99315 -60.3344,9.00232 -87.6687,9.00232 -39.3332,0 -69.6641,-7.17667 -91.0052,-21.5048 -21.3286,-14.3282 -31.9928,-35.833 -31.9928,-64.5019 0,-16.67 3.5002,-30.3309 10.5006,-41.1714 7.0004,-10.6643 16.3301,-19.4903 28.329,-26.4907 11.9989,-7.0004 25.836,-12.6662 41.4988,-16.9974 15.4991,-4.16751 32.0054,-8.00766 49.4939,-11.6715 27.6743,-5.82947 54.0013,-12.6662 79.0063,-20.3339 25.1687,-7.50403 47.5045,-18.1683 66.9949,-31.8292 19.3392,-13.8371 34.8383,-31.5018 46.1699,-53.5103 11.3316,-21.9959 16.9974,-50.1612 16.9974,-84.3322 0,-35.1657 -6.49678,-65.6603 -19.4903,-91.3326 -13.0061,-25.6598 -31.5018,-47.0009 -55.4996,-63.8346 -23.8341,-16.6574 -52.843,-29.16 -87.0014,-37.3313 -34.3347,-8.15874 -71.666,-12.1626 -112.334,-12.1626 -35.5056,0 -70.5077,3.5002 -104.842,10.5006 -34.3221,7.0004 -62.8274,16.8337 -85.6668,29.4999l0 101.002c32.3328,-14.0008 63.6709,-24.1741 94.3418,-30.5072 30.4946,-6.3331 62.1601,-9.49335 94.6691,-9.49335 18.823,0 37.495,1.49829 55.6633,4.65854 18.1683,3.00917 34.4984,8.33501 49.0028,15.839 14.4918,7.50403 26.1634,17.6647 34.9894,30.6708 8.83864,12.8299 13.1698,28.6563 13.1698,47.6556z"/>
   <glyph unicode="P" horiz-adv-x="600" d="M259.004 252.999c-10.667,0 -21.334,0.162292 -31.6765,0.50163 -10.49,0.339338 -20.1537,1.00326 -29.3306,2.00652l0 -255.507 -119.993 0 0 653.005 188.657 0c31.4994,0 59.1776,-1.3426 82.8428,-4.17533 23.5029,-2.65569 44.6599,-6.83102 63.1612,-12.3342 44.6746,-13.662 79.0068,-35.4977 103.174,-65.4923 24.1668,-29.8322 36.1616,-67.8381 36.1616,-114.165 0,-31.4994 -6.50644,-59.8415 -19.5046,-85.0116 -12.9981,-25.3323 -32.1634,-46.6664 -57.1563,-64.1644 -25.0077,-17.6603 -55.6662,-31.1601 -91.8426,-40.4993 -36.1616,-9.50147 -77.6642,-14.1637 -124.493,-14.1637zm-61.0071 102.997c6.83102,-0.988507 15.5063,-1.82948 25.9963,-2.33111 10.667,-0.50163 21.6734,-0.663922 33.0043,-0.663922 32.1634,0 59.1629,2.67044 80.8362,7.83428 21.8357,5.16384 39.3337,12.3342 52.6712,21.6586 13.3227,9.33918 22.8242,20.5078 28.6667,33.6682 5.82776,13.1752 8.82279,27.5011 8.82279,43.1697 0,19.1652 -4.32287,35.8371 -13.1604,49.8384 -8.83755,14.0014 -24.0045,24.8307 -45.8402,32.665 -11.3309,3.836 -25.3323,6.66873 -42.1665,8.49821 -16.6571,1.82948 -37.1649,2.67044 -61.494,2.67044l-67.3365 0 0 -197.008z"/>
   <glyph unicode="a" horiz-adv-x="514" d="M342.504 50.3374l-2.00191 0c-6.49678,-6.83672 -14.1645,-13.8371 -23.3305,-21.0012 -9.166,-7.16408 -19.6666,-14.0008 -31.3381,-20.3339 -11.6715,-6.3331 -24.6651,-11.3316 -39.0058,-15.1717 -14.3282,-3.82756 -29.8273,-5.82947 -46.4973,-5.82947 -22.4995,0 -43.5007,3.5002 -62.991,10.5006 -19.6666,7.0004 -36.3366,17.1611 -50.3374,30.3309 -14.0008,13.1698 -25.005,28.9963 -33.0001,47.8319 -7.99506,18.6719 -11.9989,39.6731 -11.9989,62.6637 0,25.5087 4.65854,48.1718 13.8371,68.5057 9.32967,20.1702 22.3232,37.1676 38.8296,51.1684 16.67,14.0008 36.5003,24.6651 59.6671,31.9928 23.0031,7.34035 48.6629,11.0042 76.6645,11.0042 20.4976,0 39.3332,-1.33461 56.6705,-3.82756 17.1611,-2.66922 32.3328,-5.84206 45.3263,-9.34226l0 18.9993c0,11.0042 -1.82564,21.6685 -5.66579,31.8418 -3.66388,10.3243 -9.66962,19.3267 -18.0046,27.3343 -8.32242,7.99506 -19.163,14.1645 -32.4965,18.9993 -13.3335,4.65854 -29.6636,7.0004 -48.8266,7.0004 -23.3431,0 -46.8372,-2.50554 -70.3314,-7.66771 -23.3431,-5.17476 -48.8391,-13.0061 -76.1734,-23.3431l0 90.3379c23.8341,10.3369 49.0028,18.332 75.6698,23.8341 26.8307,5.66579 54.6686,8.49869 83.9922,8.83864 34.511,0 64.8419,-4.16751 90.6779,-12.6662 25.8234,-8.51128 47.6556,-20.1702 64.9929,-35.002 17.501,-14.8318 30.6708,-32.3328 39.3332,-52.503 8.49869,-20.1702 12.8299,-42.1661 12.8299,-65.8365l0 -178.334c0,-31.3255 0.339948,-58.1688 1.00725,-80.6683 0.667305,-22.3232 1.33461,-42.3298 2.00191,-59.9945l-104.502 0 -4.99849 50.3374zm-9.50594 151.327c-10.9916,2.66922 -23.6704,4.99849 -37.9986,7.16408 -14.3282,2.16559 -28.8326,3.17284 -43.337,3.17284 -28.329,0 -50.6648,-5.66579 -66.9949,-16.8337 -16.5063,-11.3316 -24.6651,-28.5052 -24.6651,-51.672 0,-10.6643 1.82564,-19.994 5.66579,-28.0016 3.66388,-7.99506 8.66237,-14.6555 14.9955,-19.8303 6.3331,-5.16217 13.8371,-9.166 22.1721,-11.8352 8.49869,-2.49295 17.501,-3.82756 26.8307,-3.82756 11.6715,0 22.8394,1.49829 33.1638,4.67113 10.3369,2.99658 20.0065,7.0004 28.6689,11.6589 8.83864,4.67113 16.67,9.99698 23.6704,15.839 7.0004,5.99315 12.9936,11.6589 17.8284,17.1611l0 72.3333z"/>
   <glyph unicode="r" horiz-adv-x="349" d="M344.505 381.006l-9.66962 0c-35.5056,0 -66.6675,-5.33844 -93.4982,-15.839 -27.007,-10.5006 -47.6682,-26.5033 -62.3363,-48.1718l0 -316.995 -115.998 0 0 473.006 95.9911 0 10.6769 -65.6728 1.98932 0c13.6734,24.1615 32.5091,42.9971 56.3432,56.8342 23.9978,13.8371 52.6667,20.8375 86.3341,20.8375 11.6589,0 21.6559,-0.667305 30.1672,-2.00191l0 -101.997z"/>
   <glyph unicode="o" horiz-adv-x="553" d="M395.004 236.504c0,24.993 -3.00978,47.168 -8.83755,66.3332 -5.82776,19.1652 -13.8391,35.1584 -24.3291,48.1565 -10.3424,13.0129 -22.8389,22.8389 -37.5042,29.3454 -14.6653,6.49169 -30.6732,9.66376 -47.8319,9.66376 -16.8341,0 -32.5027,-3.17207 -47.0057,-9.66376 -14.503,-6.50644 -26.9995,-16.3325 -37.3272,-29.3454 -10.3424,-12.9981 -18.5013,-28.9913 -24.3291,-48.1565 -5.84252,-19.1652 -8.83755,-41.3402 -8.83755,-66.3332 0,-25.0077 2.99503,-47.168 8.83755,-66.3332 5.82776,-19.1652 13.9866,-35.1731 24.4914,-48.009 10.667,-12.8211 23.1635,-22.4996 37.6665,-29.1683 14.3407,-6.65398 30.3339,-9.98834 47.5073,-9.98834 17.1587,0 32.9896,3.33437 47.3303,9.98834 14.326,6.66873 26.6602,16.3472 37.0026,29.1683 10.49,12.8358 18.5013,28.8437 24.3291,48.009 5.82776,19.1652 8.83755,41.3255 8.83755,66.3332zm119.993 0c0,-37.1649 -5.50318,-71.0102 -16.6571,-101.506 -11.0064,-30.6585 -26.8372,-56.8318 -47.6696,-78.6674 -20.6701,-21.8357 -45.6779,-38.6698 -75.0085,-50.5024 -29.3306,-11.8326 -61.9956,-17.8226 -98.1572,-17.8226 -37.1649,0 -70.5086,5.99006 -100.001,17.8226 -29.5077,11.8326 -54.5007,28.6667 -75.0085,50.5024 -20.4931,21.8357 -36.1616,48.009 -47.168,78.6674 -10.8293,30.4962 -16.3325,64.3415 -16.3325,101.506 0,37.1649 5.50318,70.9954 16.6718,101.492 11.0064,30.6732 26.8372,56.8318 47.6696,78.6674 20.6701,21.8357 45.6631,38.6698 74.9937,50.5024 29.3306,11.8326 62.0104,17.8374 98.172,17.8374 37.1649,0 70.4938,-6.00481 100.001,-17.8374 29.4929,-11.8326 54.5007,-28.6667 74.9937,-50.5024 20.5078,-21.8357 36.1764,-47.9942 47.168,-78.6674 10.8293,-30.4962 16.3325,-64.3267 16.3325,-101.492z"/>
   <glyph unicode="l" horiz-adv-x="252" d="M67.9945 0l0 707.004 116.001 0 0 -707.004 -116.001 0z"/>
   <glyph unicode="i" horiz-adv-x="248" d="M66.0041 472.997l116.001 0 0 -472.997 -116.001 0 0 472.997zm-3.00651 234.007l122 0 0 -125.007 -122 0 0 125.007z"/>
  </font>
  <font id="FontID0" horiz-adv-x="635" font-variant="normal" style="fill-rule:nonzero" font-style="normal" font-weight="400">
	<font-face 
		font-family="Corbel">
		<font-face-src>
			<font-face-name name="Corbel"/>
		</font-face-src>
	</font-face>
   <missing-glyph><path d="M0 0z"/></missing-glyph>
   <glyph unicode="w" horiz-adv-x="711" d="M350.672 387.336c-10.005,-42.6743 -19.3336,-79.5038 -28.0114,-110.335l-75.1649 -277 -76.658 0 -150.84 464.006 76.0072 0 86.4971 -289.174c11.4981,-38.0036 20.1631,-68.5035 25.9951,-91.3337l2.00355 0c5.16839,23.5066 13.8334,57.3372 25.8292,101.67l77.6662 278.838 76.0072 0 83.9959 -278.838c11.3322,-37.8377 20.6735,-71.6683 27.9986,-101.67l2.00355 0c7.83553,30.0022 16.5006,60.502 25.8292,91.3337l86.1653 289.174 76.0072 0 -154.337 -464.006 -79.5038 0 -76.8239 277c-9.34138,32.8352 -18.8359,69.6648 -28.675,110.335l-1.99079 0z"/>
   <glyph unicode="A" horiz-adv-x="635" d="M17.4959 0l265.502 653.003 69.0012 0 266.497 -653.003 -86.4971 0 -76.6708 196.003 -275.328 0 -77.0026 -196.003 -85.5017 0zm299.498 551.997c-29.3258,-81.3287 -57.3244,-155.332 -83.83,-221.832l-25.1656 -62.161 218.502 0 -25.1656 62.3269c-26.8373,67.674 -54.1724,141.499 -82.3369,221.666l-2.00355 0z"/>
   <glyph unicode="t" horiz-adv-x="347" d="M318.5 -0.829494c-6.49558,-2.50124 -16.5006,-5.00249 -29.8363,-7.33783 -13.3357,-2.16945 -29.1599,-3.49664 -47.8299,-3.82844 -24.3361,0 -45.4946,2.99894 -63.501,8.99682 -17.9936,5.99788 -32.8352,14.6629 -44.831,25.8292 -11.8299,11.3322 -20.8394,24.8338 -26.6714,40.8366 -5.83198,16.0029 -8.83092,33.6647 -8.83092,53.1642l0 282.168 -89.3302 0 0 65.0068 89.3302 0 0 126.989 75.9944 0 0 -126.989 138.679 0 0 -65.0068 -138.679 0 0 -270.339c0,-10.6558 1.50585,-20.6608 4.67069,-29.8235 2.99894,-9.00958 8.00143,-16.9983 14.6629,-23.6725 6.67424,-6.66148 15.1734,-11.8299 25.676,-15.4924 10.324,-3.8412 22.8302,-5.67885 37.4931,-5.67885 10.1709,0 20.8394,0.842256 32.0057,2.50124 11.1663,1.50585 21.503,3.6753 30.9976,6.34244l0 -63.6669z"/>
   <glyph unicode="L" horiz-adv-x="520" d="M162.999 652.996l0 -580.991 318.831 0 0 -72.005 -398.835 0 0 652.996 80.004 0z"/>
   <glyph unicode="n" horiz-adv-x="527" d="M146.336 399.497l1.32719 0c8.49913,10.8345 17.8405,20.6735 28.1645,30.0022 10.1709,9.16272 21.6689,17.33 34.507,24.3361 12.6721,6.99327 26.4928,12.4935 41.6661,16.3347 15.1606,3.82844 31.6612,5.83198 49.6676,5.83198 21.1712,0 41.0025,-2.99894 59.4939,-8.83092 18.67,-5.83198 34.6729,-15.3393 48.3404,-28.3432 13.6675,-12.9912 24.502,-29.9894 32.5034,-50.9948 7.98867,-21.0053 11.9958,-46.6686 11.9958,-77.3344l0 -310.499 -76.0072 0 0 298.337c0,39.9944 -7.65687,68.6566 -23.162,86.3312 -15.3265,17.4959 -37.8377,26.3269 -67.4953,26.3269 -26.0078,0 -51.1734,-7.15917 -75.5095,-21.6562 -24.3233,-14.5098 -45.3287,-34.3411 -62.8246,-59.6725l0 -329.667 -76.0072 0 0 464.006 58.6771 0 14.6629 -64.5091z"/>
   <glyph unicode="k" horiz-adv-x="486" d="M373.668 464.006l98.6715 0 -226.503 -213.512 225.993 -250.495 -94.1667 0 -222.662 246.998 -0.995393 0 0 -246.998 -76.0072 0 0 706.997 76.0072 0 0 -450.16 0.995393 0 218.667 207.169z"/>
   <glyph unicode="h" horiz-adv-x="532" d="M154.005 400.339l1.49309 0c8.49913,10.6558 17.8405,20.6608 28.3304,29.9894 10.3368,9.34138 21.8348,17.3428 34.6729,24.0043 12.6594,6.66148 26.3269,11.8299 40.8366,15.837 14.6629,3.82844 30.4999,5.83198 47.4981,5.83198 17.4959,0 34.9919,-2.33535 52.6665,-7.00604 17.4959,-4.82383 33.8306,-13.1571 48.8253,-25.1656 14.8416,-12.1617 27.1691,-28.8281 36.5105,-50.3312 9.49452,-21.503 14.1652,-49.1699 14.1652,-83.0005l0 -310.499 -76.0072 0 0 298.337c0,37.3272 -6.99327,65.4918 -21.1585,84.3277 -14.1652,18.8359 -37.34,28.3304 -69.4989,28.3304 -26.6714,0 -52.0029,-7.15917 -76.0072,-21.6562 -24.0043,-14.5098 -44.831,-34.507 -62.3269,-59.8384l0 -329.501 -76.0072 0 0 706.997 76.0072 0 0 -306.658z"/>
   <glyph unicode="e" horiz-adv-x="497" d="M253.498 411.005c-17.6667,0 -33.8392,-3.50222 -48.9999,-10.3354 -15.0051,-6.83322 -28.1578,-16.0012 -39.3338,-27.831 -11.1604,-11.6741 -20.3284,-25.5117 -27.3329,-41.3417 -6.83322,-15.6588 -11.1604,-32.5006 -12.8259,-50.4942l237.995 0c0,18.3361 -2.33481,35.3335 -7.16009,50.9923 -4.84084,15.8456 -11.8453,29.6677 -21.169,41.3417 -9.16803,11.8297 -20.4996,20.9977 -34.1661,27.6597 -13.5108,6.67756 -29.1696,10.0086 -47.0075,10.0086zm39.505 -357.008c24.9981,0 47.8325,2.00794 68.5034,6.00825 20.6553,4.00031 41.3262,9.66612 61.8258,16.9974l0 -62.6664c-16.6706,-8.17184 -37.1702,-14.507 -61.4989,-19.3322 -24.5,-4.66962 -50.6654,-7.00444 -78.6676,-7.00444 -33.1699,0 -64.3319,4.17153 -93.5014,12.6702 -29.1696,8.49872 -54.3389,22.1651 -75.6635,40.9993 -21.169,18.8342 -37.8395,43.5053 -49.9961,73.998 -12.0009,30.337 -18.0092,66.9935 -18.0092,110.001 0,42.3379 5.83703,78.9945 17.5111,110.001 11.8297,31.162 27.3329,57.0005 46.8208,77.8271 19.5035,20.8421 42.0111,36.5009 67.336,46.8363 25.3405,10.5067 51.8328,15.6744 79.5081,15.6744 25.9942,0 50.323,-4.34275 72.8306,-13.0127 22.6632,-8.65437 42.3379,-22.1651 58.8373,-40.8281 16.655,-18.4917 29.6677,-42.4936 39.3338,-71.8344 9.4949,-29.3252 14.3202,-64.5031 14.3202,-105.502 0,-3.82909 0,-7.16009 0,-9.993 0,-2.83291 -0.155654,-8.99681 -0.498093,-18.8342l-320.834 0c0,-29.4965 4.34275,-54.4945 13.3396,-75.1654 8.99681,-20.4996 21.169,-37.3414 36.6721,-50.1673 15.4876,-12.6702 33.4968,-22.0095 54.3233,-27.831 20.8421,-5.83703 43.3341,-8.84115 67.5072,-8.84115z"/>
   <glyph unicode="T" horiz-adv-x="555" d="M318.003 0l-80.0015 0 0 581.003 -218.336 0 0 72.0001 516.673 0 0 -72.0001 -218.336 0 0 -581.003z"/>
   <glyph unicode="s" horiz-adv-x="404" d="M126.998 340.338c0,-12.6702 2.66169,-23.1769 8.17184,-31.1775 5.32337,-8.15628 12.6702,-14.8338 21.8227,-19.8303 9.01237,-4.9965 19.5035,-9.16803 31.5044,-12.499 12.0009,-3.15978 24.3287,-6.1639 37.1702,-8.66994 17.4955,-4.00031 34.1661,-8.3275 49.6692,-12.9971 15.6588,-4.66962 30.1658,-11.8297 43.3341,-21.169 13.324,-9.4949 24.0019,-22.3208 32.1581,-38.322 8.17184,-16.1725 12.1722,-36.999 12.1722,-62.6664 0,-23.5038 -4.4984,-44.1746 -13.6664,-62.3395 -9.16803,-17.9936 -21.9939,-33.1699 -38.6645,-45.3265 -16.6706,-12.1722 -36.5009,-21.5114 -59.6778,-27.8465 -23.1613,-6.31956 -48.6575,-9.4949 -76.3328,-9.4949 -16.9974,0 -32.3294,0.840532 -46.167,2.66169 -13.9933,1.83672 -26.1655,4.00031 -36.8278,6.83322 -10.4911,2.67725 -19.5035,5.51016 -26.9904,8.34306 -7.50253,2.98856 -13.8377,5.66581 -18.6785,8.3275l0 62.8376c19.1766,-7.67375 38.3376,-13.8377 57.1718,-18.3361 19.0054,-4.4984 39.8319,-6.662 62.4951,-6.662 18.0092,0 34.1661,1.6655 48.673,4.82528 14.3357,3.331 26.8348,8.17184 37.1702,14.507 10.4911,6.49078 18.4917,14.4914 24.1575,24.1575 5.51016,9.51047 8.34306,20.8421 8.34306,33.5123 0,12.9971 -2.50603,23.8306 -7.67375,32.1581 -5.16772,8.49872 -12.0009,15.5032 -20.6709,20.9977 -8.65437,5.66581 -18.6629,10.1642 -29.9946,13.6664 -11.5028,3.67344 -23.3326,6.83322 -35.8316,9.83734 -16.3281,3.50222 -32.9987,7.8294 -49.8405,12.6702 -16.8262,4.82528 -32.0025,11.6585 -45.8246,20.4996 -13.8377,8.82559 -24.9981,20.6709 -33.4968,35.8316 -8.51428,15.1607 -12.6702,34.6642 -12.6702,58.3392 0,24.3287 4.32718,45.4977 13.1683,63.4913 8.82559,17.838 20.8265,32.6718 35.8316,44.3303 14.9895,11.6741 32.3294,20.4996 52.3309,26.3367 19.8303,5.83703 40.8281,8.84115 62.9932,8.84115 25.8386,0 49.6692,-2.33481 71.6787,-7.17566 22.1651,-4.82528 41.9955,-10.9892 59.9891,-18.3361l0 -63.4913c-19.161,7.16009 -38.4933,13.1683 -57.9967,17.6667 -19.6591,4.66962 -39.8319,7.00444 -60.5028,7.33131 -17.4955,0 -32.5006,-1.83672 -44.9996,-5.33894 -12.3278,-3.65787 -22.6632,-8.65437 -30.4926,-14.9895 -8.00062,-6.33512 -13.8377,-14.0089 -17.5111,-22.6788 -3.65787,-8.65437 -5.49459,-18.1648 -5.49459,-28.6559z"/>
   <glyph unicode="b" horiz-adv-x="535" d="M410 233.662c0,36.8423 -4.33889,66.6658 -13.0039,89.6747 -8.49913,22.9961 -19.6654,40.8239 -33.0011,53.6619 -13.4889,12.838 -27.9986,21.8348 -43.1592,26.6714 -15.3393,4.82383 -30.6658,7.32507 -45.8391,7.32507 -23.4938,0 -45.4946,-4.82383 -66.1681,-14.6629 -20.6608,-9.82632 -38.8331,-22.4984 -54.8232,-38.0036l0 -242.825c4.49203,-6.17654 10.4899,-13.0039 17.8277,-20.3418 7.33783,-7.32507 16.0029,-14.1652 25.9951,-20.4949 10.1709,-6.32968 21.503,-11.664 34.0093,-16.0029 12.4935,-4.49203 26.161,-6.66148 41.1684,-6.66148 22.3325,0 42.1638,4.32613 59.1621,13.1698 17.1642,8.83092 31.4953,21.3244 42.9933,37.3272 11.5108,16.1688 20.1759,35.3365 26.0078,57.669 5.83198,22.3325 8.83092,46.8345 8.83092,73.4932zm79.0061 6.17654c0,-43.3379 -5.84474,-80.6779 -17.5087,-112.339 -11.8299,-31.4953 -27.1691,-57.669 -46.5027,-78.3298 -19.1549,-20.6735 -41.1557,-36.0001 -65.8236,-46.005 -24.6679,-10.1709 -50.3439,-15.1606 -76.6708,-15.1606 -19.8313,0 -37.3272,2.50124 -52.5006,7.49097 -14.9947,5.00249 -27.9986,11.0004 -38.5013,18.0064 -10.6686,6.99327 -19.0018,13.9993 -25.3315,21.1712 -6.32968,7.15917 -10.8345,12.8253 -13.5016,17.1642l-1.49309 0 -16.0029 -51.837 -57.1713 0 0 706.997 76.0072 0 0 -286.66 1.49309 0c16.5006,17.4959 35.8342,31.3294 58.0008,41.0025 22.1666,9.82632 47.3322,14.6629 75.4967,14.6629 13.0039,0 27.1691,-1.50585 42.3425,-4.33889 14.9947,-2.99894 29.9894,-8.00143 44.831,-15.1606 14.6629,-7.17194 28.994,-16.6665 42.6615,-28.3304 13.6675,-11.6767 25.6633,-26.3396 36.0001,-43.6697 10.5027,-17.33 18.67,-38.0036 24.8338,-62.0079 6.16378,-23.8256 9.34138,-51.4925 9.34138,-82.6559z"/>
   <glyph unicode="p" horiz-adv-x="530" d="M405 236.16c0,27.0019 -2.83562,51.3374 -8.66204,72.8373 -5.67124,21.3306 -14.164,39.6704 -25.6758,54.8361 -11.4977,15.1656 -25.4924,26.8326 -42.1675,35.0008 -16.661,8.16827 -35.9884,12.1607 -57.8269,12.1607 -15.6735,0 -30.0068,-2.15846 -42.9998,-6.33429 -12.8379,-4.16173 -24.5048,-9.49439 -35.0008,-15.998 -10.496,-6.48948 -19.4966,-13.5009 -27.0019,-20.992 -7.50522,-7.33593 -13.5009,-14.0088 -18.1705,-19.8352l0 -242.664c16.0121,-16.3365 34.3378,-29.3437 54.6668,-38.8381 20.5124,-9.49439 42.5061,-14.3333 66.0093,-14.3333 14.3333,0 29.6682,2.66633 45.6662,7.99898 15.998,5.50195 30.825,14.9963 44.3259,28.8358 13.5009,13.8254 24.8434,32.659 33.6747,56.5008 8.83133,23.6584 13.1623,54.0037 13.1623,90.8244zm79.0023 1.17093c0,-32.1652 -3.1742,-60.6625 -9.50849,-85.6611 -6.32019,-24.8434 -14.827,-46.4985 -25.3231,-65.1769 -10.3408,-18.495 -22.6708,-33.9992 -36.6655,-46.4985 -14.0088,-12.4993 -28.5114,-22.6567 -43.677,-30.3312 -14.9963,-7.6604 -30.162,-13.1623 -45.6662,-16.4917 -15.4901,-3.49867 -30.162,-5.17747 -43.8322,-5.17747 -28.4973,0 -53.1573,4.6696 -73.9941,13.8395 -20.8369,9.3392 -39.6704,23.1646 -56.3315,41.3351l-1.50951 0 0 -270.174 -74.4879 0 0 691.002 57.1638 0 15.998 -52.6635 1.4954 0c4.33102,6.50358 9.66368,12.8379 16.3365,19.0029 6.67287,6.165 15.6594,12.6686 26.8326,19.6659 11.3284,6.99735 24.8293,12.9931 40.5028,18.1705 15.8287,5.16337 32.9976,7.82969 51.4926,7.82969 26.1695,0 51.1681,-4.33102 75.5036,-13.1765 24.1662,-8.83133 45.6662,-22.826 64.1612,-41.9982 18.5091,-19.1581 33.5054,-43.8322 44.6786,-73.8248 11.1591,-30.1761 16.8303,-66.6723 16.8303,-109.672z"/>
   <glyph unicode="K" horiz-adv-x="604" d="M82.9948 0l0 653 80.0062 0 0 -322.671 0.996186 0 300.008 322.671 79.9907 0 -304.662 -325.006 322.671 -327.994 -80.0062 0 -318.001 319.667 -0.996186 0 0 -319.667 -80.0062 0z"/>
   <glyph unicode="m" horiz-adv-x="828" d="M453.006 0l-76.0072 0 0 298.337c0,20.1631 -2.16945,37.1613 -6.66148,51.3266 -4.33889,14.1652 -10.6686,25.8419 -19.0018,35.0047 -8.33323,9.16272 -18.3382,15.837 -29.8363,19.9972 -11.664,4.17299 -24.502,6.32968 -38.999,6.32968 -27.0032,0 -51.6711,-7.15917 -73.8378,-21.6562 -22.1666,-14.5098 -41.9979,-34.3411 -59.6598,-59.6725l0 -329.667 -76.0072 0 0 464.006 58.843 0 14.6629 -64.5091 1.49309 0c8.49913,10.8345 17.6746,20.6735 27.6668,30.0022 9.83908,9.16272 21.0053,17.33 33.167,24.3361 12.3403,6.99327 25.8419,12.4935 40.5048,16.3347 14.6629,3.82844 30.6658,5.83198 47.9958,5.83198 34.507,0 63.3351,-8.33323 86.1653,-24.8338 22.843,-16.6665 40.5048,-39.1649 52.8452,-67.8399l1.99079 0c20.5077,29.0068 44.0015,51.6711 70.3411,68.0058 26.3269,16.5006 56.9926,24.6679 92.1632,24.6679 16.3347,0 33.4988,-2.33535 51.6711,-6.84014 18.3254,-4.49203 34.9919,-12.9912 50.3312,-25.1656 15.3265,-12.1617 27.9986,-28.994 37.9908,-50.4971 10.1709,-21.503 15.1734,-49.1699 15.1734,-83.0005l0 -310.499 -76.0072 0 0 298.337c0,20.1631 -2.15669,37.1613 -6.49558,51.3266 -4.49203,14.1652 -10.8345,25.8419 -19.0018,35.0047 -8.33323,9.16272 -18.1595,15.837 -29.6576,19.9972 -11.5108,4.17299 -24.3361,6.32968 -38.6672,6.32968 -26.8373,0 -51.5052,-7.15917 -73.6719,-21.6562 -22.1666,-14.5098 -41.9979,-34.3411 -59.4939,-59.6725l0 -329.667z"/>
   <glyph unicode="H" horiz-adv-x="667" d="M162.999 369.999l341.008 0 0 282.998 79.9898 0 0 -652.996 -79.9898 0 0 297.994 -341.008 0 0 -297.994 -80.004 0 0 652.996 80.004 0 0 -282.998z"/>
   <glyph unicode="j" horiz-adv-x="241" d="M163.001 -103.339c0,-42.4936 -12.3278,-75.8347 -36.8278,-99.821 -24.5,-23.8462 -63.18,-35.8471 -116.336,-35.8471 -14.0089,0 -27.3329,1.01175 -40.33,3.17534 -12.8415,2.16359 -22.3364,4.32718 -28.5003,6.49078l0 64.3474c9.82178,-2.50603 19.4879,-4.51397 29.3252,-5.83703 9.66612,-1.50985 19.8303,-2.16359 30.1658,-2.16359 31.0063,0 53.1715,6.33512 66.4954,18.9898 13.3396,12.6702 20.0016,32.6718 20.0016,59.6778l0 558.331 76.0059 0 0 -567.344zm-77.9983 675.337l0 84.0065 75.9903 0 0 -84.0065 -75.9903 0z"/>
   <glyph unicode="&amp;" horiz-adv-x="669" d="M601 340.003c-0.663595,-47.1663 -8.66502,-90.0065 -24.1702,-128.342 -15.4924,-38.4885 -36.1659,-72.4978 -61.8292,-102.155 13.9993,-14.3439 27.0032,-27.8455 39.3308,-40.5048 12.1744,-12.6721 22.9961,-24.0043 32.5034,-33.8306 9.49452,-9.67318 17.1642,-17.6746 23.162,-23.6725 5.99788,-5.99788 9.83908,-9.82632 11.4981,-11.4981l-96.3234 0c-1.17405,1.32719 -7.50373,7.66963 -18.8359,18.8359 -11.1663,11.3322 -25.3315,25.6633 -42.1638,43.3251 -31.6739,-23.9915 -65.6704,-42.4956 -102.334,-55.155 -36.5105,-12.6721 -73.506,-19.0018 -110.833,-19.0018 -36.0001,0 -66.6658,4.82383 -92.176,14.6629 -25.6633,9.66042 -46.6686,22.6643 -62.8246,38.5013 -16.3347,16.0029 -28.3432,34.1624 -35.8342,54.5042 -7.50373,20.329 -11.1663,41.1557 -11.1663,62.161 0,25.4974 3.66254,47.8299 11.0004,66.9976 7.32507,19.1677 17.1642,36.1659 29.6576,51.0075 12.6721,14.8288 27.0032,27.9986 43.3379,39.4967 16.1688,11.4981 33.167,22.1666 50.663,31.993 -12.9912,12.3403 -25.3315,24.8338 -36.8295,37.1741 -11.4981,12.3276 -21.6689,25.1656 -30.334,38.6672 -8.49913,13.3357 -15.3265,27.335 -20.1631,42.1638 -4.83659,14.8288 -7.33783,30.9976 -7.33783,48.6722 0,24.1574 4.33889,45.4946 13.0039,64.3305 8.49913,18.67 20.8267,34.4942 36.6636,47.664 16.0029,13.0039 35.0047,22.8302 57.1713,29.6704 22.0007,6.82738 46.6686,10.324 73.6591,10.324 24.6679,0 47.664,-3.16484 69.0012,-9.32862 21.1712,-6.16378 39.8412,-15.3265 55.4995,-27.5009 15.837,-12.3276 28.1645,-27.335 37.34,-45.3287 9.16272,-17.8405 13.6675,-38.5013 13.6675,-62.0079 0,-24.4892 -4.17299,-45.8264 -12.6721,-64.3305 -8.49913,-18.3254 -19.6654,-34.826 -33.6647,-49.5017 -13.9993,-14.6629 -30.0022,-27.8327 -47.8299,-39.3308 -18.0064,-11.664 -36.5105,-22.6643 -55.6654,-33.0011 10.6558,-11.1663 22.8302,-23.4938 36.3318,-37.3272 13.5016,-13.8334 27.6668,-28.5091 42.4956,-43.8356 14.8288,-15.1734 30.0022,-30.9976 45.6732,-47.0004 15.4924,-16.1688 30.9976,-32.1716 46.49,-48.1617 16.6665,21.8221 30.0022,47.4981 39.8412,77.1557 9.99222,29.6704 15.3265,64.1773 15.9901,103.508l79.0061 0zm-350.506 -288c12.1744,0 24.9997,0.995393 38.8331,3.16484 13.8334,2.16945 28.0114,5.50019 42.3425,10.1709 14.3311,4.49203 28.6622,10.4899 43.1592,17.6618 14.5098,7.17194 28.3432,15.837 41.6661,25.9951 -15.4924,16.0029 -31.8271,32.6693 -48.4935,49.8335 -16.8324,17.3428 -33.3329,34.3411 -49.8335,51.0075 -16.5006,16.8324 -32.1716,32.8352 -47.1663,48.1617 -15.0075,15.3393 -28.4963,29.1727 -40.5048,41.5002 -14.3311,-8.16733 -27.6668,-16.8324 -39.9944,-26.161 -12.3403,-9.34138 -23.1748,-19.3336 -32.5034,-30.1681 -9.32862,-10.6686 -16.5006,-22.6643 -22.0007,-35.6683 -5.33429,-13.0039 -8.00143,-27.6668 -8.00143,-44.0015 0,-14.3311 2.50124,-28.1645 7.33783,-41.5002 4.83659,-13.5016 12.3276,-25.3315 22.4984,-35.8342 10.005,-10.3368 22.8302,-18.67 38.3354,-24.8338 15.3265,-6.16378 33.4988,-9.32862 54.3255,-9.32862zm-82.49 462.335c0,-12.1744 1.82489,-23.5066 5.33429,-34.3411 3.66254,-10.8345 8.83092,-21.3244 15.8242,-31.8271 7.00604,-10.5027 15.5052,-21.0053 25.676,-31.8398 9.99222,-10.8345 21.6562,-22.4984 34.6601,-35.3237 15.5052,8.15457 30.4999,16.6665 44.4992,25.4974 14.1652,8.83092 26.6714,18.4913 37.34,28.994 10.8345,10.3368 19.1677,22.1666 25.3315,35.1706 6.16378,13.1698 9.32862,27.9986 9.32862,44.6651 0,15.3393 -2.50124,28.3304 -7.33783,39.1649 -4.82383,10.8345 -11.664,19.6654 -20.4949,27.0032 -8.66502,7.17194 -19.1677,12.3276 -31.4953,15.6711 -12.1744,3.16484 -25.4974,4.82383 -40.173,4.82383 -30.4999,0 -54.6701,-7.49097 -72.166,-22.4984 -17.4959,-14.9947 -26.3269,-36.8295 -26.3269,-65.16z"/>
   <glyph unicode="g" horiz-adv-x="530" d="M124.998 228.838c0,-36.5105 4.33889,-66.334 13.1698,-89.3429 8.83092,-23.162 19.9972,-41.1684 33.6647,-53.9937 13.5016,-12.838 28.1645,-21.6689 44.1674,-26.3396 16.0029,-4.82383 31.1635,-7.15917 45.4946,-7.15917 23.5066,0 45.6732,4.83659 66.1681,14.3311 20.5077,9.49452 38.6672,22.4984 54.3383,38.8331l0 242.672c-4.17299,5.83198 -10.1709,12.4935 -17.6618,19.8313 -7.50373,7.49097 -16.1688,14.3311 -26.1737,20.6608 -10.005,6.32968 -21.3371,11.664 -33.9965,16.1688 -12.6721,4.33889 -26.6714,6.49558 -41.6661,6.49558 -22.4984,0 -42.3425,-4.49203 -59.5066,-13.5016 -16.9983,-8.83092 -31.3294,-21.3244 -42.9933,-37.3272 -11.4981,-16.0029 -20.3418,-35.0047 -26.1737,-57.3372 -5.83198,-22.3325 -8.83092,-47.0004 -8.83092,-73.9909zm127.997 247.164c20.1759,-0.331798 37.8377,-2.83304 52.8324,-7.83553 15.0075,-4.83659 27.8327,-10.8345 38.6672,-18.1723 10.6686,-7.32507 19.3336,-14.497 25.676,-21.6562 6.32968,-7.17194 10.6558,-12.838 12.9912,-17.011l2.00355 0 15.6711 52.6793 57.1585 0 0 -491.175c0,-35.8342 -5.83198,-66.9976 -17.6618,-93.5031 -11.664,-26.4928 -28.1645,-48.4935 -49.3358,-66.1554 -21.3371,-17.5087 -46.8345,-30.6785 -76.6708,-39.1777 -29.8235,-8.66502 -62.8246,-12.9912 -99.1565,-12.9912 -30.6658,0 -58.0008,2.66714 -82.171,8.00143 -24.1702,5.33429 -43.0061,11.8299 -56.6608,19.1677l0 63.8328c11.0004,-4.50479 21.8221,-8.33323 32.1589,-11.3449 10.5027,-2.99894 21.1712,-5.50019 32.3375,-7.65687 11.0004,-2.00355 22.3325,-3.6753 33.9965,-4.50479 11.4981,-0.995393 24.3361,-1.49309 38.3354,-1.49309 54.5042,0 96.3362,12.6594 125.33,37.9908 29.0068,25.4974 43.5038,64.1646 43.5038,116.167l0 62.0079 -1.50585 0c-16.6665,-18.1723 -35.8342,-32.0057 -58.0008,-41.3343 -22.0007,-9.17548 -47.1663,-13.8334 -75.4967,-13.8334 -13.0039,0 -27.0032,1.49309 -41.9979,4.32613 -14.9947,2.99894 -30.0022,8.00143 -44.9969,15.0075 -15.0075,6.99327 -29.3386,16.156 -43.172,27.8327 -13.6675,11.4981 -25.6633,25.9951 -36.1659,43.3251 -10.3368,17.5087 -18.8359,38.0036 -25.1656,61.842 -6.32968,23.6597 -9.49452,51.1607 -9.49452,82.3241 0,43.3379 5.83198,80.8438 17.6618,112.505 11.664,31.8271 27.1691,58.0008 46.5027,78.8275 19.1677,20.8394 41.1684,36.3446 66.0022,46.6686 24.8338,10.1709 50.3312,15.3393 76.8239,15.3393z"/>
   <glyph unicode=" " horiz-adv-x="200" d=""/>
   <glyph unicode="u" horiz-adv-x="517" d="M257.501 -11.9958c-24.1702,0 -45.8391,2.66714 -65.1727,7.82277 -19.1549,5.16839 -36.1659,12.5062 -50.663,22.0007 -14.497,9.34138 -26.8373,20.6735 -36.9954,33.8434 -10.005,13.1571 -18.0064,27.6668 -24.0043,43.3251 -4.50479,11.6767 -7.83553,24.502 -9.66042,38.5013 -2.00355,13.9993 -2.99894,29.3386 -2.99894,45.8391l0 284.67 75.9944 0 0 -284.504c0,-25.6633 3.49664,-47.1663 10.3368,-64.4964 7.83553,-19.5123 20.329,-34.8388 37.8249,-46.1709 17.5087,-11.1663 39.8412,-16.8324 66.8317,-16.8324 28.675,0 51.837,6.16378 69.1671,18.4913 17.5087,12.5062 30.0022,29.0068 37.5059,50.0121 5.50019,15.8242 8.33323,35.6555 8.33323,58.9962l0 284.504 75.9944 0 0 -285.167c0,-15.5052 -0.829494,-30.1681 -2.66714,-43.6697 -1.82489,-13.5016 -4.65793,-26.0078 -8.66502,-37.34 -5.83198,-15.9901 -13.8334,-30.6658 -24.1574,-44.1674 -10.3368,-13.4889 -23.0089,-25.1656 -38.0036,-34.826 -14.9947,-9.83908 -32.3375,-17.33 -52.1688,-22.8302 -19.6654,-5.33429 -41.9979,-8.00143 -66.8317,-8.00143z"/>
   <glyph unicode="S" horiz-adv-x="551" d="M146.999 480.839c0,-19.1677 3.82844,-35.0047 11.664,-47.5109 7.83553,-12.6594 18.1723,-22.9961 31.3421,-31.1635 13.1571,-8.00143 28.3304,-14.8288 45.6605,-19.9972 17.33,-5.16839 35.5024,-10.005 54.1724,-14.6629 25.3315,-6.17654 50.1653,-13.0039 74.6672,-20.5077 24.4892,-7.49097 46.1582,-17.8277 65.3259,-30.9976 19.1677,-13.1698 34.6729,-30.334 46.5027,-51.5052 11.8299,-21.1585 17.6618,-48.3276 17.6618,-81.6605 0,-33.8306 -6.32968,-63.0033 -19.1677,-87.6712 -12.8253,-24.4892 -30.6658,-44.6651 -53.3301,-60.4893 -22.6643,-15.837 -49.3358,-27.5009 -80.3333,-35.1706 -30.9976,-7.66963 -64.8282,-11.4981 -101.492,-11.4981 -17.011,0 -34.3411,0.995393 -52.0029,3.16484 -17.8405,2.16945 -34.6729,5.00249 -50.8416,8.49913 -16.156,3.49664 -30.6658,7.66963 -43.6569,12.1617 -13.0039,4.50479 -23.3407,9.17548 -30.8317,13.6675l0 72.4978c11.664,-5.83198 24.821,-11.0004 39.4967,-15.8242 14.6629,-4.83659 29.8363,-9.00958 45.4946,-12.3403 15.6711,-3.33074 31.3294,-5.99788 47.3322,-8.00143 16.0029,-1.82489 30.9976,-2.83304 45.0096,-2.83304 22.6643,0 44.4992,2.00355 65.16,5.83198 20.6735,4.0071 38.8331,10.5027 54.3383,19.4995 15.6583,9.17548 27.9986,21.6689 37.1613,37.34 9.16272,15.837 13.6675,35.5024 13.6675,59.328 0,19.4995 -3.99433,35.6683 -11.9958,48.3404 -7.83553,12.6594 -18.5041,23.162 -31.8398,31.4953 -13.3357,8.33323 -28.6622,15.0075 -45.9923,20.3418 -17.5087,5.15563 -35.6683,9.99222 -54.836,14.497 -25.4974,5.99788 -50.1653,12.4935 -74.3354,19.8313 -24.3361,7.33783 -45.8391,17.4959 -64.8282,30.4999 -19.0018,13.0039 -34.3411,29.8363 -45.8391,50.3312 -11.4981,20.4949 -17.33,46.8345 -17.33,78.6616 0,33.167 5.99788,61.842 18.1595,85.6676 12.1744,24.0043 28.675,43.8356 49.3358,59.5066 20.8394,15.4924 44.6651,27.1691 71.6683,34.6601 27.0032,7.50373 55.8313,11.1663 86.4971,11.1663 34.8388,0 67.1635,-3.33074 97.3316,-9.99222 30.1681,-6.67424 57.669,-15.5052 82.8346,-26.1737l0 -73.825c-26.9905,11.3322 -55.0019,20.6608 -83.83,27.8327 -28.8281,7.15917 -59.6725,10.8345 -92.495,11.1663 -24.6679,0 -46.1709,-2.66714 -64.5091,-8.00143 -18.1595,-5.33429 -33.3329,-13.0039 -45.3287,-22.9961 -11.9958,-9.83908 -21.0053,-21.8348 -26.8373,-36.0001 -5.83198,-14.178 -8.83092,-29.8363 -8.83092,-47.1663z"/>
   <glyph unicode="P" horiz-adv-x="570" d="M163.001 0l-80.0062 0 0 653 181.01 0c26.9904,0 51.8328,-1.6655 74.8229,-4.84084 23.0057,-3.331 44.0034,-8.3275 63.1644,-15.1607 39.0069,-13.9933 68.6746,-34.991 88.8474,-62.8376 20.1572,-27.831 30.1658,-62.1683 30.1658,-102.825 0,-33.1699 -6.50634,-62.4951 -19.6747,-87.6644 -13.1683,-25.3405 -32.3294,-46.3382 -57.3274,-63.3357 -24.9981,-16.9974 -55.335,-29.6677 -91.3378,-38.3376 -35.8316,-8.66994 -76.504,-12.9971 -122.002,-12.9971 -21.6671,0 -44.3303,0.996186 -67.6629,3.00412l0 -268.005zm0 340.836c10.6623,-1.16741 21.9939,-2.16359 33.668,-2.83291 11.6585,-0.669313 22.6632,-0.996186 33.1699,-0.996186 37.3259,0 69.1571,2.98856 95.4938,8.82559 26.3367,5.83703 47.8325,14.3357 64.3319,25.4961 16.6706,11.3316 28.6715,24.9981 36.174,40.9993 7.48696,16.1725 11.1604,34.5085 11.1604,55.0082 0,25.3249 -6.1639,46.167 -18.3361,62.4951 -12.1566,16.1725 -29.4965,28.5003 -51.8328,36.999 -13.9933,5.16772 -30.1658,8.84115 -48.3306,11.0047 -18.1648,2.16359 -39.3338,3.15978 -63.3357,3.15978l-92.1628 0 0 -240.159z"/>
   <glyph unicode="a" horiz-adv-x="489" d="M345.006 51.3393l-1.83765 0c-6.32968,-7.83553 -14.1652,-15.6711 -23.5066,-23.3407 -9.49452,-7.50373 -20.4949,-14.3311 -32.8224,-20.329 -12.5062,-6.16378 -26.0078,-10.8345 -40.6707,-14.3311 -14.6629,-3.5094 -30.334,-5.33429 -47.0004,-5.33429 -22.4984,0 -43.172,3.33074 -61.8292,9.99222 -18.8359,6.67424 -35.0047,16.5006 -48.5063,29.3386 -13.5016,12.838 -24.0043,28.4963 -31.4953,47.0004 -7.50373,18.5041 -11.3322,39.4967 -11.3322,62.8374 0,23.162 4.16023,43.8228 12.4935,61.9951 8.33323,18.1595 19.9972,33.6647 35.0047,46.3368 14.9947,12.6594 33.0011,22.4984 53.9937,29.3258 21.0053,6.84014 44.3333,10.1709 69.6648,10.1709 24.1702,-0.331798 46.5027,-2.50124 67.1763,-6.32968 20.4949,-3.8412 38.6672,-8.84368 54.6573,-14.6757l2.00355 0 0 32.1716c0,12.838 -0.829494,24.0043 -2.50124,33.8306 -1.49309,9.67318 -4.32613,18.3382 -8.16733,25.8292 -8.49913,15.6711 -22.0007,28.5091 -40.658,38.8331 -18.5041,10.1709 -43.5038,15.3393 -75.1777,15.3393 -23.3279,0 -45.4946,-2.16945 -66.1554,-6.32968 -20.6735,-4.33889 -41.1684,-10.1709 -61.6761,-17.6746l0 62.8374c7.66963,3.99433 16.9983,7.50373 27.5009,11.0004 10.6686,3.33074 21.8348,6.32968 33.4988,8.66502 11.6767,2.50124 24.0043,4.33889 37.1741,5.50019 12.9912,1.33995 25.9951,2.00355 38.999,2.00355 46.8345,0 85.1699,-8.33323 114.993,-24.8338 29.8363,-16.6665 51.3393,-38.6672 64.5091,-66.0022 4.82383,-10.3368 8.33323,-21.8348 10.4899,-34.3283 2.16945,-12.5062 3.1776,-26.3396 3.1776,-41.3343l0 -309.503 -63.6669 0 -8.33323 51.3393zm-4.0071 152.499c-13.9993,3.99433 -30.4999,7.65687 -49.6676,11.3322 -19.1677,3.49664 -40.3262,5.50019 -63.501,5.83198 -32.1589,0 -57.3244,-6.84014 -75.4967,-20.5077 -18.1723,-13.8334 -27.335,-34.826 -27.335,-63.3223 0,-14.3439 2.33535,-26.8373 6.84014,-37.6718 4.49203,-10.8345 10.8345,-19.6654 18.8231,-26.6714 7.83553,-6.99327 17.3428,-12.3276 28.1773,-15.6583 11.0004,-3.5094 22.4984,-5.16839 34.826,-5.16839 16.3347,0 31.508,2.33535 45.5073,7.15917 13.8334,4.67069 26.3269,10.3368 37.1613,16.8324 11.0004,6.50834 20.1631,13.0039 27.8327,19.6782 7.66963,6.49558 13.3357,11.4981 16.8324,15.1606l0 93.0054z"/>
   <glyph unicode="r" horiz-adv-x="335" d="M327.663 401.998l-5.83198 0c-17.8277,0 -35.5024,-1.65899 -52.6665,-4.83659 -17.33,-3.33074 -33.4988,-8.33323 -48.6594,-14.9947 -15.1734,-6.66148 -28.8409,-14.8288 -41.0025,-24.502 -12.1744,-9.82632 -22.3325,-21.3371 -30.4999,-34.6601l0 -323.005 -76.0072 0 0 464.006 58.843 0 14.6629 -73.6719 1.49309 0c7.50373,11.9958 16.6665,23.162 27.6668,33.4988 10.8345,10.5027 23.1748,19.4995 36.8423,27.335 13.6675,7.83553 28.6622,13.8334 44.831,18.3254 16.3347,4.33889 33.4988,6.50834 51.3266,6.50834 3.3435,0 6.67424,0 10.005,-0.165899 3.49664,-0.165899 6.49558,-0.497697 8.99682,-0.842256l0 -72.9955z"/>
   <glyph unicode="o" horiz-adv-x="533" d="M408.001 231.504c0,28.6559 -3.50222,54.1676 -10.5067,76.4884 -6.98887,22.3364 -16.8262,41.3417 -29.3252,56.8449 -12.6702,15.5032 -27.5041,27.1616 -44.8284,35.1623 -17.3399,8.00062 -36.3452,12.0009 -56.8449,12.0009 -20.4996,0 -39.4895,-4.00031 -56.8293,-12.0009 -17.3399,-8.00062 -32.1737,-19.6591 -44.8284,-35.1623 -12.499,-15.5032 -22.3364,-34.5085 -29.3408,-56.8449 -7.00444,-22.3208 -10.4911,-47.8325 -10.4911,-76.4884 0,-28.3446 3.48665,-53.6695 10.4911,-76.0059 7.00444,-22.3364 16.8418,-41.1705 29.6677,-56.5025 12.6702,-15.3319 27.6753,-26.9904 44.9996,-34.991 17.3399,-8.00062 36.3297,-12.0009 56.8293,-12.0009 20.4996,0 39.3338,4.00031 56.5025,12.0009 17.1687,8.00062 32.0025,19.6591 44.6727,34.991 12.499,15.3319 22.3364,34.1661 29.3252,56.5025 7.00444,22.3364 10.5067,47.6613 10.5067,76.0059zm78.9945 0c0,-36.5009 -5.16772,-69.6708 -15.6588,-99.5097 -10.3354,-29.9946 -25.1693,-55.6619 -44.1746,-76.8309 -19.161,-21.3246 -42.1667,-37.824 -69.1571,-49.6692 -27.1772,-11.6585 -57.4986,-17.4955 -91.011,-17.4955 -34.493,0 -65.4993,5.83703 -92.6609,17.4955 -27.1616,11.8453 -50.3385,28.3446 -69.4996,49.6692 -19.0054,21.169 -33.4968,46.8363 -43.661,76.8309 -10.1798,29.8389 -15.1763,63.0088 -15.1763,99.5097 0,36.8278 5.16772,70.1689 15.6744,99.9922 10.3354,30.0101 25.1693,55.6775 44.1591,77.1733 19.1766,21.4958 42.3379,37.9952 69.4996,49.8249 27.1772,11.6741 57.6699,17.5111 91.1666,17.5111 34.1661,0 65.0012,-5.83703 92.334,-17.5111 27.5041,-11.8297 50.6654,-28.3291 69.4996,-49.8249 18.8342,-21.4958 33.3411,-47.1632 43.5053,-77.1733 10.1642,-29.8233 15.1607,-63.1644 15.1607,-99.9922z"/>
   <glyph unicode="l" horiz-adv-x="231" d="M78.0007 0l0 707 75.9974 0 0 -707 -75.9974 0z"/>
   <glyph unicode="i" horiz-adv-x="231" d="M78.0007 0l0 463.998 75.9974 0 0 -463.998 -75.9974 0zm-2.00327 572.005l0 83.9964 75.9974 0 0 -83.9964 -75.9974 0z"/>
  </font>
  <style type="text/css">
   <![CDATA[
    @font-face { font-family:"Corbel";font-variant:normal;font-style:normal;font-weight:bold;src:url("#FontID1") format(svg)}
    @font-face { font-family:"Corbel";font-variant:normal;font-style:normal;font-weight:normal;src:url("#FontID0") format(svg)}
    .str1 {stroke:#20E063;stroke-width:55.5551}
    .str5 {stroke:#FF7058;stroke-width:55.5551}
    .str4 {stroke:#FA6A50;stroke-width:111.11}
    .str3 {stroke:#4D6375;stroke-width:41.6654}
    .str6 {stroke:#FF7058;stroke-width:41.6654}
    .str0 {stroke:white;stroke-width:13.8858}
    .str7 {stroke:#FF7058;stroke-width:97.2205;stroke-linecap:round;stroke-linejoin:round}
    .str2 {stroke:#324A5E;stroke-width:41.6654;stroke-dasharray:41.665354 41.665354}
    .fil18 {fill:none}
    .fil24 {fill:none}
    .fil3 {fill:black}
    .fil17 {fill:#17BDFF}
    .fil6 {fill:#20E063}
    .fil19 {fill:#21CC43}
    .fil21 {fill:#292828}
    .fil13 {fill:#29E395}
    .fil10 {fill:#2A4052}
    .fil11 {fill:#324A5E}
    .fil33 {fill:#363636}
    .fil7 {fill:#3D3D3D}
    .fil0 {fill:#40C3F7}
    .fil1 {fill:#4AD969}
    .fil12 {fill:#69D7FF}
    .fil5 {fill:#6CF788}
    .fil14 {fill:#9571FA}
    .fil4 {fill:#BD782D}
    .fil32 {fill:#F3F3F4}
    .fil15 {fill:#FF5E4C}
    .fil30 {fill:#FF654A}
    .fil27 {fill:#FF7058}
    .fil28 {fill:#FF9D47}
    .fil16 {fill:#FFC229}
    .fil22 {fill:#FFD05B}
    .fil23 {fill:#FFF8E5}
    .fil2 {fill:white}
    .fil8 {fill:#38D958;fill-opacity:0.101961}
    .fil20 {fill:#4AD969;fill-opacity:0.290196}
    .fil31 {fill:#FF7058;fill-opacity:0.831373}
    .fil9 {fill:#54DE72}
    .fil26 {fill:#FF7058}
    .fil29 {fill:url(#id1)}
    .fil25 {fill:url(#id2)}
    .fnt1 {font-weight:normal;font-size:252.933px;font-family:'Corbel'}
    .fnt3 {font-weight:bold;font-size:266.846px;font-family:'Corbel'}
    .fnt4 {font-weight:normal;font-size:279.071px;font-family:'Corbel'}
    .fnt5 {font-weight:bold;font-size:282.85px;font-family:'Corbel'}
    .fnt6 {font-weight:bold;font-size:291.665px;font-family:'Corbel'}
    .fnt0 {font-weight:normal;font-size:308.508px;font-family:'Corbel'}
    .fnt2 {font-weight:bold;font-size:312.693px;font-family:'Corbel'}
   ]]>
  </style>
   <clipPath id="id0">
    <rect x="14015" y="-3252" width="22222" height="12500"/>
   </clipPath>
  <linearGradient id="id1" gradientUnits="userSpaceOnUse" x1="4568.84" y1="4394.73" x2="6240.95" y2="4102.22">
   <stop offset="0" style="stop-opacity:1; stop-color:white"/>
   <stop offset="1" style="stop-opacity:1; stop-color:white"/>
  </linearGradient>
  <linearGradient id="id2" gradientUnits="userSpaceOnUse" xlink:href="#id1" x1="4568.84" y1="4394.73" x2="6240.95" y2="4102.22">
  </linearGradient>
 </defs>
 <g id="Layer_x0020_1">
  <metadata id="CorelCorpID_0Corel-Layer"/>
  <ellipse class="fil0" cx="8195" cy="-7867" rx="4217" ry="4200"/>
  <g style="clip-path:url(#id0)">
   <image x="14015" y="-3252" width="22222" height="12500" xlink:href="11876-11ALHP-0a49b84b-bde6-4443-9a78-6781990e165b_Images\11876-11ALHP-0a49b84b-bde6-4443-9a78-6781990e165b_ImgID1.png"/>
  </g>
  <ellipse class="fil1" cx="-6657" cy="4563" rx="4217" ry="4200"/>
  <polygon class="fil2 str0" points="-8745,1577 -5485,1577 -4373,2689 -4373,7412 -4390,7428 -8745,7428 -8762,7412 -8762,1593 "/>
  <polygon class="fil3 str1" points="-4992,6570 -4997,6982 -4998,7079 -4998,7172 "/>
  <path class="fil4" d="M-4989 7053c-100,4 -185,72 -224,168 1,0 1,1 2,2 -38,-30 -86,-47 -138,-47 -123,0 -224,99 -224,221 0,13 1,25 3,37 -1,0 -3,1 -3,3l593 0 0 0 587 0c-1,-2 -2,-3 -3,-3 2,-12 3,-24 3,-37 0,-122 -101,-221 -225,-221 -52,0 -99,17 -137,47 0,-1 1,-2 2,-2 -39,-96 -124,-164 -224,-168 -2,1 -4,2 -6,4 -2,-2 -4,-3 -6,-4z"/>
  <path class="fil5" d="M-4619 6295l233 0c2,0 5,3 5,6l0 212c0,220 -180,400 -400,400l-232 0c-3,0 -6,-2 -6,-5l0 -213c0,-220 180,-400 400,-400z"/>
  <path class="fil6" d="M-5386 6291l-232 0c-3,0 -6,3 -6,6l0 212c0,220 180,400 400,400l232 0c3,0 6,-2 6,-5l0 -213c0,-220 -180,-400 -400,-400z"/>
  <text x="-8170" y="2371"  class="fil7 fnt0">Surat Angkut</text>
  <text x="-8170" y="2747"  class="fil7 fnt0">Tumbuhan &amp; Satwa</text>
  <path class="fil8" d="M-6932 6468c85,0 154,84 154,187 0,104 -69,187 -154,187 -86,0 -155,-83 -155,-187 0,-103 69,-187 155,-187zm512 157c128,0 236,80 267,189 118,29 205,129 205,248 0,141 -124,256 -276,256 -80,0 -153,-32 -203,-82 -49,46 -116,75 -190,75 -148,0 -268,-115 -268,-257 0,-119 85,-219 201,-248 34,-105 140,-181 264,-181zm489 -162c85,0 154,84 154,187 0,104 -69,187 -154,187 -86,0 -155,-83 -155,-187 0,-103 69,-187 155,-187zm-728 -388c111,0 201,112 201,250 0,138 -90,250 -201,250 -111,0 -202,-112 -202,-250 0,-138 91,-250 202,-250zm427 -6c112,0 202,112 202,250 0,138 -90,249 -202,249 -111,0 -201,-111 -201,-249 0,-138 90,-250 201,-250z"/>
  <path class="fil8" d="M-5861 5604c85,0 154,84 154,187 0,103 -69,187 -154,187 -85,0 -154,-84 -154,-187 0,-103 69,-187 154,-187zm513 156c127,0 235,80 266,190 118,29 205,128 205,247 0,142 -123,256 -276,256 -80,0 -152,-31 -203,-82 -48,46 -115,75 -190,75 -148,0 -268,-115 -268,-256 0,-119 86,-220 201,-248 35,-105 140,-182 265,-182zm488 -161c85,0 154,83 154,187 0,103 -69,187 -154,187 -85,0 -154,-84 -154,-187 0,-104 69,-187 154,-187zm-728 -388c111,0 202,111 202,249 0,138 -91,250 -202,250 -111,0 -201,-112 -201,-250 0,-138 90,-249 201,-249zm428 -7c111,0 201,112 201,250 0,138 -90,250 -201,250 -112,0 -202,-112 -202,-250 0,-138 90,-250 202,-250z"/>
  <path class="fil9" d="M-8155 3807l2715 0c18,0 33,15 33,33l0 34c0,19 -15,33 -33,33l-2715 0c-18,0 -33,-14 -33,-33l0 -34c0,-18 15,-33 33,-33z"/>
  <path class="fil9" d="M-8154 4244l2714 0c19,0 33,15 33,33l0 34c0,19 -14,33 -33,33l-2714 0c-18,0 -33,-14 -33,-33l0 -34c0,-18 15,-33 33,-33z"/>
  <path class="fil9" d="M-8154 3406l1657 0c18,0 33,15 33,33l0 34c0,18 -15,33 -33,33l-1657 0c-18,0 -33,-15 -33,-33l0 -34c0,-18 15,-33 33,-33z"/>
  <path class="fil9" d="M-6250 3396l152 0c18,0 33,15 33,33l0 34c0,18 -15,33 -33,33l-152 0c-18,0 -33,-15 -33,-33l0 -34c0,-18 15,-33 33,-33z"/>
  <path class="fil9" d="M-6690 5561l0 0c0,0 -1,0 -1,0 0,0 1,0 1,0zm-4 1c-1,1 -1,1 -1,1 0,0 0,0 1,-1z"/>
  <path class="fil9" d="M-8083 5313l2714 0c18,0 33,14 33,33l0 34c0,18 -15,33 -33,33l-2714 0c-19,0 -33,-15 -33,-33l0 -34c0,-19 14,-33 33,-33z"/>
  <path class="fil9" d="M-8093 4912l1657 0c18,0 33,15 33,33l0 34c0,19 -15,33 -33,33l-1657 0c-18,0 -33,-14 -33,-33l0 -34c0,-18 15,-33 33,-33z"/>
  <path class="fil9" d="M-6189 4900l152 0c19,0 34,15 34,33l0 34c0,18 -15,33 -34,33l-152 0c-18,0 -33,-15 -33,-33l0 -34c0,-18 15,-33 33,-33z"/>
  <polygon class="fil3 str1" points="-5991,6864 -5995,7135 -5995,7198 -5995,7259 "/>
  <path class="fil4" d="M-5989 7181c-66,3 -122,47 -148,110 1,0 2,1 2,1 -25,-19 -56,-30 -90,-30 -82,0 -148,65 -148,145 0,8 1,16 2,24 -1,0 -1,1 -2,2l389 0 0 0 386 0c0,-1 -1,-2 -2,-2 1,-8 2,-16 2,-24 0,-80 -66,-145 -147,-145 -34,0 -66,11 -91,30 1,0 1,-1 2,-1 -26,-63 -82,-107 -147,-110 -2,1 -3,2 -4,3 -1,-1 -3,-2 -4,-3z"/>
  <path class="fil5" d="M-5746 6684l152 0c2,0 4,1 4,3l0 140c0,144 -118,262 -263,262l-152 0c-2,0 -4,-1 -4,-3l0 -140c0,-144 119,-262 263,-262z"/>
  <path class="fil6" d="M-6250 6681l-153 0c-1,0 -3,2 -3,3l0 140c0,144 118,262 263,262l152 0c2,0 4,-1 4,-3l0 -139c0,-145 -119,-263 -263,-263z"/>
  <rect class="fil10" x="7395" y="-6252" width="1672" height="258"/>
  <rect class="fil11" x="5668" y="-10007" width="5052" height="3775" rx="172" ry="172"/>
  <rect class="fil2" x="5974" y="-9740" width="4455" height="3180" rx="9" ry="9"/>
  <polygon class="fil11" points="7391,-6026 7297,-5864 9194,-5864 9063,-6026 "/>
  <path class="fil10" d="M6957 -5876l2535 0c31,0 56,25 56,55l0 303 -2646 0 0 -303c0,-30 25,-55 55,-55z"/>
  <rect class="fil12" x="7073" y="-8357" width="254" height="931"/>
  <rect class="fil13" x="7500" y="-8474" width="254" height="1048"/>
  <rect class="fil14" x="7915" y="-8533" width="254" height="1104"/>
  <rect class="fil15" x="8342" y="-8366" width="254" height="931"/>
  <rect class="fil16" x="8748" y="-8498" width="254" height="1075"/>
  <rect class="fil17" x="9193" y="-8685" width="254" height="1265"/>
  <line class="fil18 str2" x1="6451" y1="-7144" x2="9794" y2= "-7144" />
  <line class="fil18 str3" x1="6758" y1="-6868" x2="6758" y2= "-8835" />
  <text x="6956" y="-9268"  class="fil3 fnt1">Program Kerja Pengawasan </text>
  <text x="7943" y="-8960"  class="fil3 fnt1">Tahunan</text>
  <ellipse class="fil0" cx="8195" cy="-7867" rx="4217" ry="4200"/>
  <ellipse class="fil19" cx="-6657" cy="4563" rx="4217" ry="4200"/>
  <polygon class="fil2 str0" points="-8745,1577 -5485,1577 -4373,2689 -4373,7412 -4390,7428 -8745,7428 -8762,7412 -8762,1593 "/>
  <polygon class="fil3 str1" points="-4992,6570 -4997,6982 -4998,7079 -4998,7172 "/>
  <path class="fil4" d="M-4989 7053c-100,4 -185,72 -224,168 1,0 1,1 2,2 -38,-30 -86,-47 -138,-47 -123,0 -224,99 -224,221 0,13 1,25 3,37 -1,0 -3,1 -3,3l593 0 0 0 587 0c-1,-2 -2,-3 -3,-3 2,-12 3,-24 3,-37 0,-122 -101,-221 -225,-221 -52,0 -99,17 -137,47 0,-1 1,-2 2,-2 -39,-96 -124,-164 -224,-168 -2,1 -4,2 -6,4 -2,-2 -4,-3 -6,-4z"/>
  <path class="fil5" d="M-4619 6295l233 0c2,0 5,3 5,6l0 212c0,220 -180,400 -400,400l-232 0c-3,0 -6,-2 -6,-5l0 -213c0,-220 180,-400 400,-400z"/>
  <path class="fil6" d="M-5386 6291l-232 0c-3,0 -6,3 -6,6l0 212c0,220 180,400 400,400l232 0c3,0 6,-2 6,-5l0 -213c0,-220 -180,-400 -400,-400z"/>
  <text x="-8170" y="2371"  class="fil7 fnt2">Surat Angkut</text>
  <text x="-8170" y="2752"  class="fil7 fnt2">Tumbuhan &amp; Satwa</text>
  <path class="fil20" d="M-8871 6787c85,0 154,84 154,187 0,103 -69,187 -154,187 -85,0 -154,-84 -154,-187 0,-103 69,-187 154,-187zm513 156c128,0 235,80 267,190 118,29 205,128 205,247 0,142 -124,256 -277,256 -80,0 -152,-31 -203,-82 -48,46 -115,75 -189,75 -149,0 -269,-115 -269,-256 0,-119 86,-220 201,-248 35,-105 140,-182 265,-182zm488 -161c85,0 154,83 154,187 0,103 -69,187 -154,187 -85,0 -154,-84 -154,-187 0,-104 69,-187 154,-187zm-728 -388c112,0 202,111 202,249 0,138 -90,250 -202,250 -111,0 -201,-112 -201,-250 0,-138 90,-249 201,-249zm428 -7c111,0 201,112 201,250 0,138 -90,250 -201,250 -111,0 -202,-112 -202,-250 0,-138 91,-250 202,-250z"/>
  <path class="fil20" d="M-7865 6192c59,0 106,57 106,128 0,70 -47,128 -106,128 -58,0 -105,-58 -105,-128 0,-71 47,-128 105,-128zm351 107c88,0 161,55 183,129 80,20 140,88 140,170 0,96 -85,175 -189,175 -55,0 -104,-22 -139,-56 -33,31 -79,51 -130,51 -101,0 -183,-79 -183,-175 0,-82 58,-151 137,-170 24,-72 96,-124 181,-124zm334 -111c58,0 106,58 106,128 0,71 -48,128 -106,128 -58,0 -105,-57 -105,-128 0,-70 47,-128 105,-128zm-498 -265c76,0 138,76 138,171 0,94 -62,170 -138,170 -76,0 -138,-76 -138,-170 0,-95 62,-171 138,-171zm293 -5c76,0 138,77 138,171 0,95 -62,171 -138,171 -76,0 -138,-76 -138,-171 0,-94 62,-171 138,-171z"/>
  <path class="fil9" d="M-8140 3694l2685 0c26,0 48,21 48,48l0 49c0,26 -22,48 -48,48l-2685 0c-26,0 -48,-22 -48,-48l0 -49c0,-27 22,-48 48,-48z"/>
  <path class="fil9" d="M-8139 4129l2684 0c27,0 48,21 48,48l0 49c0,26 -21,48 -48,48l-2684 0c-26,0 -48,-22 -48,-48l0 -49c0,-27 22,-48 48,-48z"/>
  <path class="fil9" d="M-8139 3270l1627 0c26,0 48,22 48,48l0 50c0,26 -22,48 -48,48l-1627 0c-26,0 -48,-22 -48,-48l0 -50c0,-26 22,-48 48,-48z"/>
  <path class="fil9" d="M-6235 3276l122 0c27,0 48,21 48,48l0 49c0,27 -21,48 -48,48l-122 0c-27,0 -48,-21 -48,-48l0 -49c0,-27 21,-48 48,-48z"/>
  <path class="fil9" d="M-6690 5561l0 0c0,0 -1,0 -1,0 0,0 1,0 1,0zm-4 1c-1,1 -1,1 -1,1 0,0 0,0 1,-1z"/>
  <path class="fil9" d="M-8068 5363l2684 0c26,0 48,21 48,48l0 49c0,26 -22,48 -48,48l-2684 0c-27,0 -48,-22 -48,-48l0 -49c0,-27 21,-48 48,-48z"/>
  <path class="fil9" d="M-8078 4891l1627 0c26,0 48,22 48,48l0 49c0,27 -22,48 -48,48l-1627 0c-26,0 -48,-21 -48,-48l0 -49c0,-26 22,-48 48,-48z"/>
  <path class="fil9" d="M-6174 4903l122 0c27,0 49,22 49,48l0 50c0,26 -22,48 -49,48l-122 0c-26,0 -48,-22 -48,-48l0 -50c0,-26 22,-48 48,-48z"/>
  <polygon class="fil3 str1" points="-5991,6864 -5995,7135 -5995,7198 -5995,7259 "/>
  <path class="fil4" d="M-5989 7181c-66,3 -122,47 -148,110 1,0 2,1 2,1 -25,-19 -56,-30 -90,-30 -82,0 -148,65 -148,145 0,8 1,16 2,24 -1,0 -1,1 -2,2l389 0 0 0 386 0c0,-1 -1,-2 -2,-2 1,-8 2,-16 2,-24 0,-80 -66,-145 -147,-145 -34,0 -66,11 -91,30 1,0 1,-1 2,-1 -26,-63 -82,-107 -147,-110 -2,1 -3,2 -4,3 -1,-1 -3,-2 -4,-3z"/>
  <path class="fil5" d="M-5746 6684l152 0c2,0 4,1 4,3l0 140c0,144 -118,262 -263,262l-152 0c-2,0 -4,-1 -4,-3l0 -140c0,-144 119,-262 263,-262z"/>
  <path class="fil6" d="M-6250 6681l-153 0c-1,0 -3,2 -3,3l0 140c0,144 118,262 263,262l152 0c2,0 4,-1 4,-3l0 -139c0,-145 -119,-263 -263,-263z"/>
  <rect class="fil10" x="7395" y="-6252" width="1672" height="258"/>
  <rect class="fil11" x="5668" y="-10007" width="5052" height="3775" rx="172" ry="172"/>
  <rect class="fil2" x="5974" y="-9740" width="4455" height="3180" rx="9" ry="9"/>
  <polygon class="fil11" points="7391,-6026 7297,-5864 9194,-5864 9063,-6026 "/>
  <path class="fil10" d="M6957 -5876l2535 0c31,0 56,25 56,55l0 303 -2646 0 0 -303c0,-30 25,-55 55,-55z"/>
  <rect class="fil12" x="7073" y="-8357" width="254" height="931"/>
  <rect class="fil13" x="7500" y="-8474" width="254" height="1048"/>
  <rect class="fil14" x="7915" y="-8533" width="254" height="1104"/>
  <rect class="fil15" x="8342" y="-8366" width="254" height="931"/>
  <rect class="fil16" x="8748" y="-8498" width="254" height="1075"/>
  <rect class="fil17" x="9193" y="-8685" width="254" height="1265"/>
  <line class="fil18 str2" x1="6451" y1="-7144" x2="9794" y2= "-7144" />
  <line class="fil18 str3" x1="6758" y1="-6868" x2="6758" y2= "-8835" />
  <text x="6809" y="-9268"  class="fil21 fnt3">Program Kerja Pengawasan </text>
  <text x="7894" y="-8943"  class="fil21 fnt3">Tahunan</text>
  <ellipse class="fil22" cx="4374" cy="4264" rx="4217" ry="4200"/>
  <path class="fil18 str4" d="M4325 1297l273 0c76,0 138,146 138,325l0 124c0,178 -62,324 -138,324l-273 0c-76,0 -138,-146 -138,-324l0 -124c0,-179 62,-325 138,-325z"/>
  <rect class="fil23 str0" x="2374" y="1593" width="4059" height="5411" rx="97" ry="97"/>
  <path class="fil24 str5" d="M3075 3107l426 0c6,0 11,5 11,11l0 378c0,6 -5,11 -11,11l-426 0c-6,0 -11,-5 -11,-11l0 -378c0,-6 5,-11 11,-11z"/>
  <line class="fil24 str5" x1="3796" y1="3180" x2="4359" y2= "3180" />
  <line class="fil24 str5" x1="3796" y1="3463" x2="4828" y2= "3463" />
  <polyline class="fil24 str5" points="3138,3228 3300,3404 3624,3053 "/>
  <path class="fil24 str5" d="M3078 4027l426 0c6,0 11,5 11,11l0 378c0,6 -5,11 -11,11l-426 0c-6,0 -10,-5 -10,-11l0 -378c0,-6 4,-11 10,-11z"/>
  <line class="fil24 str5" x1="3799" y1="4100" x2="4249" y2= "4100" />
  <line class="fil24 str5" x1="3799" y1="4383" x2="4436" y2= "4383" />
  <polyline class="fil24 str5" points="3141,4148 3303,4323 3627,3973 "/>
  <path class="fil24 str5" d="M3078 4955l426 0c6,0 11,5 11,10l0 379c0,6 -5,10 -11,10l-426 0c-6,0 -10,-4 -10,-10l0 -379c0,-5 4,-10 10,-10z"/>
  <line class="fil24 str5" x1="3799" y1="5019" x2="4518" y2= "5019" />
  <line class="fil24 str5" x1="3799" y1="5310" x2="5520" y2= "5310" />
  <path class="fil24 str5" d="M3094 5883l426 0c6,0 10,4 10,10l0 379c0,5 -4,10 -10,10l-426 0c-6,0 -11,-5 -11,-10l0 -379c0,-6 5,-10 11,-10z"/>
  <line class="fil24 str5" x1="3799" y1="5947" x2="4518" y2= "5947" />
  <line class="fil24 str5" x1="3799" y1="6238" x2="5520" y2= "6238" />
  <text x="3204" y="2381"  class="fil7 fnt4">Analisis Laporan Hasil </text>
  <text x="3720" y="2721"  class="fil7 fnt4">Pemeriksaan </text>
  <path class="fil25 str6" d="M5965 4904l66 60 50 44m-825 -1612c-462,81 -771,521 -690,983 81,461 521,770 982,689 462,-80 771,-520 690,-982 -81,-462 -520,-770 -982,-690z"/>
  <path class="fil26 str6" d="M6076 4992l0 0c71,-74 188,-76 262,-6l331 318c44,42 45,112 3,155l-103 108c-42,44 -112,46 -156,4l-331 -318c-74,-70 -76,-188 -6,-261z"/>
  <path class="fil27" d="M3831 1493l1263 0c57,0 103,47 103,104l0 203c0,2 -2,5 -5,5l-1460 0c-2,0 -5,-3 -5,-5l0 -203c0,-57 47,-104 104,-104z"/>
  <line class="fil24 str5" x1="3796" y1="3316" x2="4623" y2= "3316" />
  <line class="fil24 str5" x1="3799" y1="4236" x2="4349" y2= "4236" />
  <line class="fil24 str5" x1="3799" y1="5164" x2="4773" y2= "5164" />
  <line class="fil24 str5" x1="3799" y1="6091" x2="4905" y2= "6091" />
  <ellipse class="fil28" cx="4374" cy="4264" rx="4217" ry="4200"/>
  <path class="fil18 str4" d="M4325 1297l273 0c76,0 138,146 138,325l0 124c0,178 -62,324 -138,324l-273 0c-76,0 -138,-146 -138,-324l0 -124c0,-179 62,-325 138,-325z"/>
  <rect class="fil23 str0" x="2374" y="1593" width="4059" height="5411" rx="97" ry="97"/>
  <path class="fil24 str5" d="M3075 3107l426 0c6,0 11,5 11,11l0 378c0,6 -5,11 -11,11l-426 0c-6,0 -11,-5 -11,-11l0 -378c0,-6 5,-11 11,-11z"/>
  <line class="fil24 str5" x1="3796" y1="3180" x2="4359" y2= "3180" />
  <line class="fil24 str5" x1="3796" y1="3463" x2="4828" y2= "3463" />
  <polyline class="fil24 str5" points="3138,3228 3300,3404 3624,3053 "/>
  <path class="fil24 str5" d="M3078 4027l426 0c6,0 11,5 11,11l0 378c0,6 -5,11 -11,11l-426 0c-6,0 -10,-5 -10,-11l0 -378c0,-6 4,-11 10,-11z"/>
  <line class="fil24 str5" x1="3799" y1="4100" x2="4249" y2= "4100" />
  <line class="fil24 str5" x1="3799" y1="4383" x2="4436" y2= "4383" />
  <polyline class="fil24 str5" points="3141,4148 3303,4323 3627,3973 "/>
  <path class="fil24 str5" d="M3078 4955l426 0c6,0 11,5 11,10l0 379c0,6 -5,10 -11,10l-426 0c-6,0 -10,-4 -10,-10l0 -379c0,-5 4,-10 10,-10z"/>
  <line class="fil24 str5" x1="3799" y1="5019" x2="4518" y2= "5019" />
  <line class="fil24 str5" x1="3799" y1="5310" x2="5520" y2= "5310" />
  <path class="fil24 str5" d="M3094 5883l426 0c6,0 10,4 10,10l0 379c0,5 -4,10 -10,10l-426 0c-6,0 -11,-5 -11,-10l0 -379c0,-6 5,-10 11,-10z"/>
  <line class="fil24 str5" x1="3799" y1="5947" x2="4518" y2= "5947" />
  <line class="fil24 str5" x1="3799" y1="6238" x2="5520" y2= "6238" />
  <text x="3125" y="2344"  class="fil7 fnt5">Analisis Laporan Hasil </text>
  <text x="3675" y="2690"  class="fil7 fnt5">Pemeriksaan </text>
  <path class="fil29 str5" d="M5965 4904l66 60 50 44m-825 -1612c-462,81 -771,521 -690,983 81,461 521,770 982,689 462,-80 771,-520 690,-982 -81,-462 -520,-770 -982,-690z"/>
  <path class="fil26 str6" d="M6076 4992l0 0c71,-74 188,-76 262,-6l331 318c44,42 45,112 3,155l-103 108c-42,44 -112,46 -156,4l-331 -318c-74,-70 -76,-188 -6,-261z"/>
  <path class="fil30" d="M3831 1493l1263 0c57,0 103,47 103,104l0 203c0,2 -2,5 -5,5l-1460 0c-2,0 -5,-3 -5,-5l0 -203c0,-57 47,-104 104,-104z"/>
  <line class="fil24 str5" x1="3796" y1="3316" x2="4623" y2= "3316" />
  <line class="fil24 str5" x1="3799" y1="4236" x2="4349" y2= "4236" />
  <line class="fil24 str5" x1="3799" y1="5164" x2="4773" y2= "5164" />
  <line class="fil24 str5" x1="3799" y1="6091" x2="4905" y2= "6091" />
  <ellipse class="fil27" cx="-996" cy="-5129" rx="4217" ry="4200"/>
  <rect class="fil2" transform="matrix(0.602834 -0.0532192 0.0551957 0.625223 -3885.43 -7063.12)" width="4486" height="5767" rx="90" ry="90"/>
  <path class="fil31" d="M-3352 -6049l1626 -143c14,-2 26,9 27,23l3 26c1,13 -9,26 -23,27l-1626 144c-14,1 -26,-10 -27,-23l-3 -26c-1,-14 9,-27 23,-28z"/>
  <path class="fil31" d="M-3328 -5816l1625 -143c14,-1 27,9 28,23l2 26c2,14 -9,26 -23,28l-1625 143c-14,1 -27,-9 -28,-23l-2 -26c-1,-14 9,-26 23,-28z"/>
  <path class="fil31" d="M-3372 -6277l628 -53c14,-1 25,9 25,23l1 26c0,14 -11,26 -25,27l-628 54c-14,1 -25,-10 -25,-23l-1 -26c0,-14 11,-27 25,-28z"/>
  <path class="fil31" d="M-3234 -4759l1625 -143c14,-2 27,9 28,23l2 26c1,14 -9,26 -23,27l-1626 144c-13,1 -26,-10 -27,-23l-2 -26c-2,-14 9,-27 23,-28z"/>
  <path class="fil31" d="M-3211 -4496l1626 -143c14,-1 26,9 27,23l3 26c1,14 -9,26 -23,28l-1626 143c-14,1 -26,-9 -27,-23l-3 -26c-1,-14 9,-26 23,-28z"/>
  <path class="fil31" d="M-3255 -5000l988 -87c14,-1 26,9 27,23l3 26c1,14 -10,26 -24,27l-987 88c-14,1 -27,-9 -28,-23l-2 -26c-2,-14 9,-27 23,-28z"/>
  <path class="fil31" d="M-3308 -5592l1625 -144c14,-1 26,9 28,23l2 26c1,14 -9,26 -23,28l-1626 143c-14,1 -26,-9 -27,-23l-2 -26c-2,-14 9,-26 23,-27z"/>
  <rect class="fil32" transform="matrix(0.627282 0.109666 -0.113739 0.650579 -877.466 -7717.74)" width="4486" height="5767" rx="90" ry="90"/>
  <path class="fil31" d="M-569 -6610l1692 295c14,3 24,17 21,31l-4 27c-3,15 -17,25 -31,22l-1692 -296c-14,-2 -24,-16 -21,-31l4 -27c3,-14 17,-24 31,-21z"/>
  <path class="fil31" d="M-616 -6336l1691 296c15,2 24,16 22,30l-5 27c-2,15 -16,25 -31,22l-1691 -296c-15,-2 -25,-16 -22,-30l5 -27c2,-15 16,-25 31,-22z"/>
  <path class="fil31" d="M-525 -6861l1028 180c15,2 25,16 22,31l-5 27c-2,14 -16,24 -31,21l-1028 -179c-14,-3 -24,-17 -21,-31l4 -27c3,-15 17,-25 31,-22z"/>
  <path class="fil31" d="M677 -6654l84 15c15,2 24,16 22,31l-5 27c-2,14 -16,24 -31,21l-84 -14c-15,-3 -24,-17 -22,-31l5 -27c2,-15 16,-25 31,-22z"/>
  <path class="fil31" d="M-842 -5198l1692 295c14,3 24,17 22,31l-5 27c-3,15 -16,24 -31,22l-1691 -296c-15,-2 -25,-16 -22,-31l5 -27c2,-14 16,-24 30,-21z"/>
  <path class="fil31" d="M-889 -4924l1691 295c15,3 25,17 22,31l-5 27c-2,15 -16,25 -31,22l-1691 -296c-15,-2 -24,-16 -22,-31l5 -27c3,-14 16,-24 31,-21z"/>
  <path class="fil31" d="M-797 -5449l1028 180c14,2 24,16 21,30l-4 28c-3,14 -17,24 -31,21l-1028 -179c-15,-3 -25,-17 -22,-31l5 -27c2,-15 16,-25 31,-22z"/>
  <path class="fil31" d="M-657 -6104l1692 296c14,2 24,16 21,31l-4 27c-3,14 -17,24 -31,21l-1692 -295c-14,-3 -24,-17 -22,-31l5 -27c3,-15 17,-25 31,-22z"/>
  <rect class="fil2" x="-2630" y="-6081" width="2831" height="3775" rx="57" ry="59"/>
  <path class="fil32" d="M-2568 -6081l1491 0 0 3775 -1491 0c-34,0 -62,-28 -62,-62l0 -3651c0,-34 28,-62 62,-62z"/>
  <path class="fil31" d="M-2144 -5040l1690 0c18,0 33,14 33,32l0 34c0,17 -15,32 -33,32l-1690 0c-18,0 -32,-15 -32,-32l0 -34c0,-18 14,-32 32,-32z"/>
  <path class="fil31" d="M-2144 -4764l1691 0c18,0 32,14 32,32l0 33c0,18 -14,33 -32,33l-1691 0c-17,0 -32,-15 -32,-33l0 -33c0,-18 15,-32 32,-32z"/>
  <path class="fil31" d="M-2144 -5319l1023 0c18,0 33,14 33,32l0 33c0,18 -15,33 -33,33l-1023 0c-17,0 -32,-15 -32,-33l0 -33c0,-18 15,-32 32,-32z"/>
  <path class="fil31" d="M-935 -5315l73 0c18,0 32,14 32,32l0 33c0,18 -14,33 -32,33l-73 0c-18,0 -33,-15 -33,-33l0 -33c0,-18 15,-32 33,-32z"/>
  <path class="fil31" d="M-2159 -3656l1690 0c18,0 33,14 33,32l0 33c0,18 -15,33 -33,33l-1690 0c-18,0 -32,-15 -32,-33l0 -33c0,-18 14,-32 32,-32z"/>
  <path class="fil31" d="M-2159 -3381l1691 0c18,0 32,15 32,33l0 33c0,18 -14,32 -32,32l-1691 0c-17,0 -32,-14 -32,-32l0 -33c0,-18 15,-33 32,-33z"/>
  <path class="fil31" d="M-2159 -3909l1023 0c18,0 33,15 33,33l0 33c0,18 -15,32 -33,32l-1023 0c-17,0 -32,-14 -32,-32l0 -33c0,-18 15,-33 32,-33z"/>
  <path class="fil31" d="M-950 -3912l73 0c18,0 32,15 32,33l0 33c0,18 -14,32 -32,32l-73 0c-18,0 -33,-14 -33,-32l0 -33c0,-18 15,-33 33,-33z"/>
  <path class="fil31" d="M-2144 -4491l1691 0c18,0 32,15 32,33l0 33c0,18 -14,32 -32,32l-1691 0c-17,0 -32,-14 -32,-32l0 -33c0,-18 15,-33 32,-33z"/>
  <circle class="fil2 str5" cx="428" cy="-3130" r="610"/>
  <path class="fil18 str7" d="M512 -3345l226 226 -224 224m-359 -235l544 0"/>
  <g transform="matrix(0.992947 -0.087413 0.0876947 0.996147 -8109.28 -10419)">
   <text x="4350" y="4250"  class="fil33 fnt6">Pelaksanaan </text>
  </g>
  <g transform="matrix(0.996787 0 0 1 -6547.56 -9837.42)">
   <text x="4350" y="4250"  class="fil33 fnt6">Tindak</text>
  </g>
  <g transform="matrix(0.984224 0.157763 -0.158271 0.987396 -4110.74 -12018.8)">
   <text x="4350" y="4250"  class="fil33 fnt6">Lanjut</text>
  </g>
 </g>
</svg>
